EESchema Schematic File Version 4
LIBS:BSPD-cache
EELAYER 26 0
EELAYER END
$Descr A3 16535 11693
encoding utf-8
Sheet 1 2
Title "Brake System Plausibility Device"
Date "2018-05-28"
Rev "v0.1"
Comp "Christian Eberhardt"
Comment1 ""
Comment2 ""
Comment3 ""
Comment4 ""
$EndDescr
$Comp
L power1:+12V #PWR01
U 1 1 5B0C34C7
P 1500 1000
F 0 "#PWR01" H 1500 850 50  0001 C CNN
F 1 "+12V" H 1500 1140 50  0000 C CNN
F 2 "" H 1500 1000 50  0001 C CNN
F 3 "" H 1500 1000 50  0001 C CNN
	1    1500 1000
	1    0    0    -1  
$EndComp
Wire Wire Line
	1500 1000 1500 1050
Wire Wire Line
	1500 1050 1600 1050
Wire Wire Line
	1500 1150 1600 1150
Connection ~ 1500 1050
Wire Wire Line
	2750 1150 2800 1150
Wire Wire Line
	2800 1050 2800 1150
Wire Wire Line
	2800 1050 2750 1050
Connection ~ 2800 1150
$Comp
L device:R R3
U 1 1 5B0C3611
P 4500 1600
F 0 "R3" V 4580 1600 50  0000 C CNN
F 1 "100k" V 4500 1600 50  0000 C CNN
F 2 "Resistor_SMD:R_0805_2012Metric_Pad1.15x1.40mm_HandSolder" V 4430 1600 50  0001 C CNN
F 3 "" H 4500 1600 50  0001 C CNN
	1    4500 1600
	0    1    1    0   
$EndComp
$Comp
L BSPD-rescue:LM2903 U6
U 1 1 5B0C3A0B
P 2050 3800
F 0 "U6" H 2200 3950 50  0000 C CNN
F 1 "LM2903" H 2150 3600 50  0000 C CNN
F 2 "Package_SO:SOIC-8_3.9x4.9mm_P1.27mm" H 2050 3800 50  0001 C CNN
F 3 "" H 2050 3800 50  0001 C CNN
	1    2050 3800
	1    0    0    -1  
$EndComp
$Comp
L LEM_HAS_100-S:HAS_100-S U2
U 1 1 5B0D7683
P 4000 1450
F 0 "U2" H 3800 1750 60  0000 C CNN
F 1 "HAS_100-S" H 3800 1150 60  0000 C CNN
F 2 "Connector_Molex:Molex_KK-254_AE-6410-04A_1x04_P2.54mm_Vertical" H 4000 1450 60  0001 C CNN
F 3 "" H 4000 1450 60  0001 C CNN
	1    4000 1450
	1    0    0    -1  
$EndComp
NoConn ~ 2750 950 
$Comp
L Vikings_actives:CD4043B U5
U 1 1 5B0D77B0
P 11850 4800
F 0 "U5" H 11600 5000 60  0000 C CNN
F 1 "CD4043B" H 12000 4600 60  0000 C CNN
F 2 "Package_SO:SOIC-16_3.9x9.9mm_P1.27mm" H 12250 4700 60  0001 C CNN
F 3 "" H 12250 4700 60  0001 C CNN
	1    11850 4800
	1    0    0    -1  
$EndComp
$Comp
L device:R R24
U 1 1 5B0D7937
P 6350 5700
F 0 "R24" V 6430 5700 50  0000 C CNN
F 1 "680" V 6350 5700 50  0000 C CNN
F 2 "Resistor_SMD:R_0805_2012Metric" V 6280 5700 50  0001 C CNN
F 3 "" H 6350 5700 50  0001 C CNN
	1    6350 5700
	-1   0    0    1   
$EndComp
$Comp
L device:R R19
U 1 1 5B0D7AFF
P 11200 5050
F 0 "R19" V 11280 5050 50  0000 C CNN
F 1 "10k" V 11200 5050 50  0000 C CNN
F 2 "Resistor_SMD:R_0805_2012Metric" V 11130 5050 50  0001 C CNN
F 3 "" H 11200 5050 50  0001 C CNN
	1    11200 5050
	-1   0    0    1   
$EndComp
$Comp
L device:R R11
U 1 1 5B0D8675
P 1650 4100
F 0 "R11" V 1730 4100 50  0000 C CNN
F 1 "1,5k" V 1650 4100 50  0000 C CNN
F 2 "Resistor_SMD:R_0805_2012Metric_Pad1.15x1.40mm_HandSolder" V 1580 4100 50  0001 C CNN
F 3 "" H 1650 4100 50  0001 C CNN
	1    1650 4100
	1    0    0    -1  
$EndComp
$Comp
L device:R R6
U 1 1 5B0D8793
P 1650 3450
F 0 "R6" V 1730 3450 50  0000 C CNN
F 1 "100k" V 1650 3450 50  0000 C CNN
F 2 "Resistor_SMD:R_0805_2012Metric_Pad1.15x1.40mm_HandSolder" V 1580 3450 50  0001 C CNN
F 3 "" H 1650 3450 50  0001 C CNN
	1    1650 3450
	1    0    0    -1  
$EndComp
Wire Wire Line
	1950 3250 1950 3500
Connection ~ 1650 3250
Wire Wire Line
	1950 4100 1950 4350
$Comp
L BSPD-rescue:LM2903 U6
U 2 1 5B0D9AD5
P 3200 6550
F 0 "U6" H 3350 6700 50  0000 C CNN
F 1 "LM2903" H 3450 6400 50  0000 C CNN
F 2 "Package_SO:SOIC-8_3.9x4.9mm_P1.27mm" H 3200 6550 50  0001 C CNN
F 3 "" H 3200 6550 50  0001 C CNN
	2    3200 6550
	1    0    0    -1  
$EndComp
Text GLabel 3100 6000 1    60   Input ~ 0
DCDC+
Wire Wire Line
	3100 6000 3100 6100
$Comp
L device:R R33
U 1 1 5B0D9F9C
P 2850 6850
F 0 "R33" V 2930 6850 50  0000 C CNN
F 1 "10k" V 2850 6850 50  0000 C CNN
F 2 "Resistor_SMD:R_0805_2012Metric_Pad1.15x1.40mm_HandSolder" V 2780 6850 50  0001 C CNN
F 3 "" H 2850 6850 50  0001 C CNN
	1    2850 6850
	1    0    0    -1  
$EndComp
$Comp
L device:R R27
U 1 1 5B0DA0F8
P 2850 6200
F 0 "R27" V 2930 6200 50  0000 C CNN
F 1 "10k" V 2850 6200 50  0000 C CNN
F 2 "Resistor_SMD:R_0805_2012Metric_Pad1.15x1.40mm_HandSolder" V 2780 6200 50  0001 C CNN
F 3 "" H 2850 6200 50  0001 C CNN
	1    2850 6200
	1    0    0    -1  
$EndComp
Wire Wire Line
	2850 6700 2850 6650
Wire Wire Line
	2900 6650 2850 6650
Connection ~ 2850 6650
Wire Wire Line
	2850 7000 2850 7050
Wire Wire Line
	3100 6850 3100 7100
$Comp
L LEM_HAS_100-S:Conn_01x03 J2
U 1 1 5B0DA8BF
P 12100 1600
F 0 "J2" H 12100 1400 50  0000 C CNN
F 1 "Conn_01x03" H 12100 1800 50  0000 C CNN
F 2 "Connector_Molex:Molex_KK-254_AE-6410-03A_1x03_P2.54mm_Vertical" H 12100 1600 50  0001 C CNN
F 3 "" H 12100 1600 50  0001 C CNN
	1    12100 1600
	-1   0    0    1   
$EndComp
Text GLabel 12300 1500 2    60   Input ~ 0
Analog_5v
Text GLabel 12300 1600 2    60   Input ~ 0
Brake_Sensor
Text GLabel 12300 1700 2    60   Input ~ 0
Analog_GND
Text Notes 12000 1350 0    60   ~ 0
From Brake Pressure Sensor\n
$Comp
L LEM_HAS_100-S:Conn_01x02 J4
U 1 1 5B0DAB02
P 14500 2050
F 0 "J4" H 14500 1850 50  0000 C CNN
F 1 "Conn_01x02" H 14500 2150 50  0000 C CNN
F 2 "Connector_Molex:Molex_KK-254_AE-6410-02A_1x02_P2.54mm_Vertical" H 14500 2050 50  0001 C CNN
F 3 "" H 14500 2050 50  0001 C CNN
	1    14500 2050
	-1   0    0    1   
$EndComp
$Comp
L power1:+12V #PWR010
U 1 1 5B0DACBE
P 14850 1900
F 0 "#PWR010" H 14850 1750 50  0001 C CNN
F 1 "+12V" H 14850 2040 50  0000 C CNN
F 2 "" H 14850 1900 50  0001 C CNN
F 3 "" H 14850 1900 50  0001 C CNN
	1    14850 1900
	1    0    0    -1  
$EndComp
Text Notes 14400 1800 0    60   ~ 0
Supply
$Comp
L LEM_HAS_100-S:Conn_01x02 J3
U 1 1 5B0DAFE0
P 13500 1750
F 0 "J3" H 13500 1850 50  0000 C CNN
F 1 "Conn_01x02" H 13500 1550 50  0000 C CNN
F 2 "Connector_Molex:Molex_KK-254_AE-6410-02A_1x02_P2.54mm_Vertical" H 13500 1750 50  0001 C CNN
F 3 "" H 13500 1750 50  0001 C CNN
	1    13500 1750
	-1   0    0    -1  
$EndComp
Text GLabel 13700 1750 2    60   Input ~ 0
SC_IN
Text GLabel 13700 1850 2    60   Input ~ 0
SC_OUT
Text Notes 13400 1600 0    60   ~ 0
Safety Chain\n
Text GLabel 15150 1200 0    60   Input ~ 0
BSPD_STATUS
Text GLabel 15150 1300 0    60   Input ~ 0
BSPD_TEST
$Comp
L LEM_HAS_100-S:Conn_01x04 J1
U 1 1 5B0DB5A5
P 15350 1200
F 0 "J1" H 15350 1400 50  0000 C CNN
F 1 "Conn_01x04" H 15350 900 50  0000 C CNN
F 2 "Connector_Molex:Molex_KK-254_AE-6410-04A_1x04_P2.54mm_Vertical" H 15350 1200 50  0001 C CNN
F 3 "" H 15350 1200 50  0001 C CNN
	1    15350 1200
	1    0    0    -1  
$EndComp
Text GLabel 2650 6000 0    60   Input ~ 0
Analog_5v
Text GLabel 2600 6450 0    60   Input ~ 0
Brake_Sensor
Wire Wire Line
	2600 6450 2900 6450
Text GLabel 2800 7050 0    60   Input ~ 0
Analog_GND
Wire Wire Line
	2850 7050 2800 7050
Wire Wire Line
	2650 6000 2850 6000
Wire Wire Line
	2850 6000 2850 6050
Text GLabel 1200 6700 0    60   Input ~ 0
Analog_GND
$Comp
L device:R R34
U 1 1 5B0DC333
P 1250 6900
F 0 "R34" V 1330 6900 50  0000 C CNN
F 1 "0" V 1250 6900 50  0000 C CNN
F 2 "Resistor_SMD:R_0805_2012Metric_Pad1.15x1.40mm_HandSolder" V 1180 6900 50  0001 C CNN
F 3 "" H 1250 6900 50  0001 C CNN
	1    1250 6900
	-1   0    0    1   
$EndComp
Wire Wire Line
	14850 1900 14850 1950
Wire Wire Line
	14850 2100 14850 2050
Wire Wire Line
	15000 1500 15000 1400
Wire Wire Line
	15000 1400 15150 1400
Text GLabel 6300 3450 0    60   Input ~ 0
DCDC+
$Comp
L Vikings_misc:TE-OJ-SS-112LMH2 K1
U 1 1 5B0DD450
P 13950 3600
F 0 "K1" H 14400 3750 50  0000 L CNN
F 1 "TE-OJ-SS-112LMH2" H 14050 4100 50  0000 L CNN
F 2 "Vikings_devices:TE-OJ-Series_Miniature-PCB-Relay" H 15220 3570 50  0001 C CNN
F 3 "" H 13950 3600 50  0001 C CNN
	1    13950 3600
	1    0    0    -1  
$EndComp
Wire Wire Line
	13250 4950 13250 5150
Wire Wire Line
	13750 3900 13750 3950
Text GLabel 14500 3950 2    60   Input ~ 0
SC_OUT
Wire Wire Line
	14500 3950 14150 3950
Text GLabel 14550 3250 2    60   Input ~ 0
SC_IN
Wire Wire Line
	14550 3250 14250 3250
Wire Wire Line
	14250 3250 14250 3300
Wire Wire Line
	13750 4700 13750 5150
Wire Wire Line
	14150 3950 14150 3900
$Comp
L device:D D2
U 1 1 5B0DF215
P 13400 3400
F 0 "D2" H 13400 3500 50  0000 C CNN
F 1 "BAS16LT1" H 13400 3300 50  0000 C CNN
F 2 "Diode_SMD:D_SOT-23_ANK" H 13400 3400 50  0001 C CNN
F 3 "" H 13400 3400 50  0001 C CNN
	1    13400 3400
	0    1    1    0   
$EndComp
$Comp
L device:R R18
U 1 1 5B0DF357
P 12900 4950
F 0 "R18" V 12980 4950 50  0000 C CNN
F 1 "10k" V 12900 4950 50  0000 C CNN
F 2 "Resistor_SMD:R_0805_2012Metric" V 12830 4950 50  0001 C CNN
F 3 "" H 12900 4950 50  0001 C CNN
	1    12900 4950
	-1   0    0    1   
$EndComp
$Comp
L device:R R17
U 1 1 5B0DF7E9
P 12700 4750
F 0 "R17" V 12780 4750 50  0000 C CNN
F 1 "33" V 12700 4750 50  0000 C CNN
F 2 "Resistor_SMD:R_0805_2012Metric" V 12630 4750 50  0001 C CNN
F 3 "" H 12700 4750 50  0001 C CNN
	1    12700 4750
	0    -1   -1   0   
$EndComp
Wire Wire Line
	12850 4750 12900 4750
$Comp
L device:R R9
U 1 1 5B0DFC2A
P 12750 3750
F 0 "R9" V 12850 3750 50  0000 C CNN
F 1 "10k" V 12750 3750 50  0000 C CNN
F 2 "Resistor_SMD:R_0805_2012Metric" V 12680 3750 50  0001 C CNN
F 3 "" H 12750 3750 50  0001 C CNN
	1    12750 3750
	1    0    0    -1  
$EndComp
Wire Wire Line
	13250 4500 13250 4550
Wire Wire Line
	13750 3300 13750 3200
$Comp
L BSPD-rescue:LTC6994 U9
U 1 1 5B0E2CE7
P 7650 5650
F 0 "U9" H 7750 5950 60  0000 C CNN
F 1 "LTC6994" H 7700 5350 60  0000 C CNN
F 2 "Package_TO_SOT_SMD:SOT-23-6" H 7650 5650 60  0001 C CNN
F 3 "" H 7650 5650 60  0001 C CNN
	1    7650 5650
	1    0    0    -1  
$EndComp
$Comp
L device:C_Small C3
U 1 1 5B0E3824
P 8000 1350
F 0 "C3" H 8010 1420 50  0000 L CNN
F 1 "0,33 µF" H 8010 1270 50  0000 L CNN
F 2 "Capacitor_SMD:C_0805_2012Metric_Pad1.15x1.40mm_HandSolder" H 8000 1350 50  0001 C CNN
F 3 "" H 8000 1350 50  0001 C CNN
	1    8000 1350
	-1   0    0    -1  
$EndComp
$Comp
L device:C_Small C2
U 1 1 5B0E3A75
P 6850 1350
F 0 "C2" H 6860 1420 50  0000 L CNN
F 1 "0,1 µF" H 6860 1270 50  0000 L CNN
F 2 "Capacitor_SMD:C_0805_2012Metric_Pad1.15x1.40mm_HandSolder" H 6850 1350 50  0001 C CNN
F 3 "" H 6850 1350 50  0001 C CNN
	1    6850 1350
	-1   0    0    -1  
$EndComp
Wire Wire Line
	8000 1150 8000 1200
Wire Wire Line
	8000 1200 7700 1200
Wire Wire Line
	6850 1200 6850 1250
Wire Wire Line
	8000 1450 8000 1550
Wire Wire Line
	8000 1550 7400 1550
Wire Wire Line
	7400 1500 7400 1550
Connection ~ 7400 1550
Wire Wire Line
	6850 1550 6850 1450
$Comp
L device:C_Small C7
U 1 1 5B0E48CD
P 8350 5800
F 0 "C7" H 8360 5870 50  0000 L CNN
F 1 "0,1 µF" H 8360 5720 50  0000 L CNN
F 2 "Capacitor_SMD:C_0805_2012Metric_Pad1.15x1.40mm_HandSolder" H 8350 5800 50  0001 C CNN
F 3 "" H 8350 5800 50  0001 C CNN
	1    8350 5800
	1    0    0    -1  
$EndComp
Wire Wire Line
	7050 5650 7250 5650
Wire Wire Line
	8100 5650 8350 5650
Wire Wire Line
	8350 5650 8350 5700
Wire Wire Line
	8350 5950 8350 5900
$Comp
L device:R R25
U 1 1 5B0E511C
P 8750 5850
F 0 "R25" V 8850 5850 50  0000 C CNN
F 1 "1M" V 8750 5850 50  0000 C CNN
F 2 "Resistor_SMD:R_0805_2012Metric_Pad1.15x1.40mm_HandSolder" V 8680 5850 50  0001 C CNN
F 3 "" H 8750 5850 50  0001 C CNN
	1    8750 5850
	1    0    0    -1  
$EndComp
$Comp
L device:R R31
U 1 1 5B0E55A5
P 8750 6400
F 0 "R31" V 8850 6400 50  0000 C CNN
F 1 "680k" V 8750 6400 50  0000 C CNN
F 2 "Resistor_SMD:R_0805_2012Metric_Pad1.15x1.40mm_HandSolder" V 8680 6400 50  0001 C CNN
F 3 "" H 8750 6400 50  0001 C CNN
	1    8750 6400
	1    0    0    -1  
$EndComp
Wire Wire Line
	8200 5800 8200 6200
Wire Wire Line
	8200 5800 8100 5800
Wire Wire Line
	8750 5600 8750 5650
Connection ~ 8350 5650
$Comp
L device:R R26
U 1 1 5B0E5AFC
P 7200 6000
F 0 "R26" V 7300 6000 50  0000 C CNN
F 1 "68k" V 7200 6000 50  0000 C CNN
F 2 "Resistor_SMD:R_0805_2012Metric_Pad1.15x1.40mm_HandSolder" V 7130 6000 50  0001 C CNN
F 3 "" H 7200 6000 50  0001 C CNN
	1    7200 6000
	1    0    0    -1  
$EndComp
Wire Wire Line
	7200 6250 7200 6200
Wire Wire Line
	7200 5850 7200 5800
Wire Wire Line
	7200 5800 7250 5800
$Comp
L power1:+12V #PWR03
U 1 1 5B0E64FE
P 8000 1150
F 0 "#PWR03" H 8000 1000 50  0001 C CNN
F 1 "+12V" H 8000 1290 50  0000 C CNN
F 2 "" H 8000 1150 50  0001 C CNN
F 3 "" H 8000 1150 50  0001 C CNN
	1    8000 1150
	-1   0    0    -1  
$EndComp
Connection ~ 8750 5650
Connection ~ 8000 1200
Text GLabel 1600 2050 0    60   Input ~ 0
DCDC+
Text GLabel 2750 2050 2    60   Input ~ 0
DCDC-
Wire Wire Line
	1650 3300 1650 3250
Text GLabel 4200 1300 2    60   Input ~ 0
DCDC+
Text GLabel 4200 1400 2    60   Input ~ 0
DCDC-
Wire Wire Line
	4650 1600 4700 1600
Text Notes 600  3000 0    60   ~ 0
HV CURRENT SIGNAL\n
$Comp
L power1:GND #PWR022
U 1 1 5B0ECC26
P 1650 4700
F 0 "#PWR022" H 1650 4450 50  0001 C CNN
F 1 "GND" H 1650 4550 50  0000 C CNN
F 2 "" H 1650 4700 50  0001 C CNN
F 3 "" H 1650 4700 50  0001 C CNN
	1    1650 4700
	1    0    0    -1  
$EndComp
$Comp
L power1:GND #PWR016
U 1 1 5B0ED3EB
P 14850 2100
F 0 "#PWR016" H 14850 1850 50  0001 C CNN
F 1 "GND" H 14850 1950 50  0000 C CNN
F 2 "" H 14850 2100 50  0001 C CNN
F 3 "" H 14850 2100 50  0001 C CNN
	1    14850 2100
	1    0    0    -1  
$EndComp
$Comp
L power1:GND #PWR05
U 1 1 5B0ED54D
P 15000 1500
F 0 "#PWR05" H 15000 1250 50  0001 C CNN
F 1 "GND" H 15000 1350 50  0000 C CNN
F 2 "" H 15000 1500 50  0001 C CNN
F 3 "" H 15000 1500 50  0001 C CNN
	1    15000 1500
	1    0    0    -1  
$EndComp
$Comp
L power1:GND #PWR06
U 1 1 5B0EDBF5
P 7400 1600
F 0 "#PWR06" H 7400 1350 50  0001 C CNN
F 1 "GND" H 7400 1450 50  0000 C CNN
F 2 "" H 7400 1600 50  0001 C CNN
F 3 "" H 7400 1600 50  0001 C CNN
	1    7400 1600
	-1   0    0    -1  
$EndComp
Wire Notes Line
	550  7400 550  5550
Text Notes 650  5700 0    60   ~ 0
BRAKE PRESSURE SIGNAL\n
Wire Wire Line
	1250 6750 1250 6700
Wire Wire Line
	1250 6700 1200 6700
Wire Wire Line
	1250 7050 1250 7150
$Comp
L power1:GND #PWR035
U 1 1 5B0EF92C
P 6350 5900
F 0 "#PWR035" H 6350 5650 50  0001 C CNN
F 1 "GND" H 6350 5750 50  0000 C CNN
F 2 "" H 6350 5900 50  0001 C CNN
F 3 "" H 6350 5900 50  0001 C CNN
	1    6350 5900
	1    0    0    -1  
$EndComp
$Comp
L power1:GND #PWR031
U 1 1 5B0EFA67
P 7050 5700
F 0 "#PWR031" H 7050 5450 50  0001 C CNN
F 1 "GND" H 7050 5550 50  0000 C CNN
F 2 "" H 7050 5700 50  0001 C CNN
F 3 "" H 7050 5700 50  0001 C CNN
	1    7050 5700
	1    0    0    -1  
$EndComp
$Comp
L power1:GND #PWR044
U 1 1 5B0F0798
P 1250 7150
F 0 "#PWR044" H 1250 6900 50  0001 C CNN
F 1 "GND" H 1250 7000 50  0000 C CNN
F 2 "" H 1250 7150 50  0001 C CNN
F 3 "" H 1250 7150 50  0001 C CNN
	1    1250 7150
	1    0    0    -1  
$EndComp
$Comp
L power1:GND #PWR038
U 1 1 5B0F0CC7
P 7200 6600
F 0 "#PWR038" H 7200 6350 50  0001 C CNN
F 1 "GND" H 7200 6450 50  0000 C CNN
F 2 "" H 7200 6600 50  0001 C CNN
F 3 "" H 7200 6600 50  0001 C CNN
	1    7200 6600
	1    0    0    -1  
$EndComp
$Comp
L power1:GND #PWR036
U 1 1 5B0F0D44
P 8350 5950
F 0 "#PWR036" H 8350 5700 50  0001 C CNN
F 1 "GND" H 8350 5800 50  0000 C CNN
F 2 "" H 8350 5950 50  0001 C CNN
F 3 "" H 8350 5950 50  0001 C CNN
	1    8350 5950
	1    0    0    -1  
$EndComp
$Comp
L power1:GND #PWR039
U 1 1 5B0F0EB3
P 8750 6600
F 0 "#PWR039" H 8750 6350 50  0001 C CNN
F 1 "GND" H 8750 6450 50  0000 C CNN
F 2 "" H 8750 6600 50  0001 C CNN
F 3 "" H 8750 6600 50  0001 C CNN
	1    8750 6600
	1    0    0    -1  
$EndComp
$Comp
L power1:+5V #PWR02
U 1 1 5B0F238D
P 6600 1150
F 0 "#PWR02" H 6600 1000 50  0001 C CNN
F 1 "+5V" H 6600 1290 50  0000 C CNN
F 2 "" H 6600 1150 50  0001 C CNN
F 3 "" H 6600 1150 50  0001 C CNN
	1    6600 1150
	1    0    0    -1  
$EndComp
Wire Wire Line
	6600 1150 6600 1200
Wire Wire Line
	6600 1200 6850 1200
Connection ~ 6850 1200
$Comp
L power1:+5V #PWR030
U 1 1 5B0F2618
P 8750 5600
F 0 "#PWR030" H 8750 5450 50  0001 C CNN
F 1 "+5V" H 8750 5740 50  0000 C CNN
F 2 "" H 8750 5600 50  0001 C CNN
F 3 "" H 8750 5600 50  0001 C CNN
	1    8750 5600
	1    0    0    -1  
$EndComp
$Comp
L power1:GND #PWR029
U 1 1 5B0F2EED
P 11200 5250
F 0 "#PWR029" H 11200 5000 50  0001 C CNN
F 1 "GND" H 11200 5100 50  0000 C CNN
F 2 "" H 11200 5250 50  0001 C CNN
F 3 "" H 11200 5250 50  0001 C CNN
	1    11200 5250
	1    0    0    -1  
$EndComp
Wire Wire Line
	11200 5250 11200 5200
Wire Wire Line
	8100 5500 8400 5500
$Comp
L power1:GND #PWR026
U 1 1 5B0F3966
P 12900 5150
F 0 "#PWR026" H 12900 4900 50  0001 C CNN
F 1 "GND" H 12900 5000 50  0000 C CNN
F 2 "" H 12900 5150 50  0001 C CNN
F 3 "" H 12900 5150 50  0001 C CNN
	1    12900 5150
	1    0    0    -1  
$EndComp
$Comp
L power1:GND #PWR027
U 1 1 5B0F3FE9
P 13250 5150
F 0 "#PWR027" H 13250 4900 50  0001 C CNN
F 1 "GND" H 13250 5000 50  0000 C CNN
F 2 "" H 13250 5150 50  0001 C CNN
F 3 "" H 13250 5150 50  0001 C CNN
	1    13250 5150
	1    0    0    -1  
$EndComp
$Comp
L power1:GND #PWR028
U 1 1 5B0F4066
P 13750 5150
F 0 "#PWR028" H 13750 4900 50  0001 C CNN
F 1 "GND" H 13750 5000 50  0000 C CNN
F 2 "" H 13750 5150 50  0001 C CNN
F 3 "" H 13750 5150 50  0001 C CNN
	1    13750 5150
	1    0    0    -1  
$EndComp
Wire Wire Line
	12900 5150 12900 5100
Wire Wire Line
	12900 4800 12900 4750
Connection ~ 12900 4750
Text Notes 6050 3200 0    79   ~ 0
500 ms DELAY BLOCK AND LATCH\n\n
$Comp
L Vikings_actives:CD4043B U5
U 3 1 5B0F5D71
P 11550 6350
F 0 "U5" H 11300 6550 60  0000 C CNN
F 1 "CD4043B" H 11700 6150 60  0000 C CNN
F 2 "Package_SO:SOIC-16_3.9x9.9mm_P1.27mm" H 11950 6250 60  0001 C CNN
F 3 "" H 11950 6250 60  0001 C CNN
	3    11550 6350
	1    0    0    -1  
$EndComp
$Comp
L Vikings_actives:CD4043B U5
U 4 1 5B0F5DF2
P 11550 6850
F 0 "U5" H 11300 7050 60  0000 C CNN
F 1 "CD4043B" H 11700 6650 60  0000 C CNN
F 2 "Package_SO:SOIC-16_3.9x9.9mm_P1.27mm" H 11950 6750 60  0001 C CNN
F 3 "" H 11950 6750 60  0001 C CNN
	4    11550 6850
	1    0    0    -1  
$EndComp
$Comp
L Vikings_actives:CD4043B U5
U 5 1 5B0F5E71
P 11200 3400
F 0 "U5" H 10950 3600 60  0000 C CNN
F 1 "CD4043B" H 11350 3200 60  0000 C CNN
F 2 "Package_SO:SOIC-16_3.9x9.9mm_P1.27mm" H 11600 3300 60  0001 C CNN
F 3 "" H 11600 3300 60  0001 C CNN
	5    11200 3400
	1    0    0    -1  
$EndComp
NoConn ~ 12100 5800
NoConn ~ 12100 6300
NoConn ~ 12100 6800
Text GLabel 11750 3300 2    60   Input ~ 0
DCDC+
$Comp
L power1:GND #PWR021
U 1 1 5B0F7805
P 11800 3550
F 0 "#PWR021" H 11800 3300 50  0001 C CNN
F 1 "GND" H 11800 3400 50  0000 C CNN
F 2 "" H 11800 3550 50  0001 C CNN
F 3 "" H 11800 3550 50  0001 C CNN
	1    11800 3550
	1    0    0    -1  
$EndComp
Wire Wire Line
	11800 3550 11800 3500
Wire Wire Line
	11800 3500 11750 3500
$Comp
L device:R R8
U 1 1 5B0F79F8
P 10450 3500
F 0 "R8" V 10530 3500 50  0000 C CNN
F 1 "10k" V 10450 3500 50  0000 C CNN
F 2 "Resistor_SMD:R_0805_2012Metric_Pad1.15x1.40mm_HandSolder" V 10380 3500 50  0001 C CNN
F 3 "" H 10450 3500 50  0001 C CNN
	1    10450 3500
	0    1    1    0   
$EndComp
Text GLabel 10250 3500 0    60   Input ~ 0
DCDC+
Wire Wire Line
	10250 3500 10300 3500
Wire Wire Line
	10600 3500 10650 3500
Wire Wire Line
	10600 5900 11000 5900
Wire Wire Line
	10600 5800 10600 5900
Wire Wire Line
	10600 6900 11000 6900
Wire Wire Line
	10600 6400 11000 6400
Connection ~ 10600 6400
$Comp
L power1:GND #PWR041
U 1 1 5B0F8B1F
P 10600 6950
F 0 "#PWR041" H 10600 6700 50  0001 C CNN
F 1 "GND" H 10600 6800 50  0000 C CNN
F 2 "" H 10600 6950 50  0001 C CNN
F 3 "" H 10600 6950 50  0001 C CNN
	1    10600 6950
	1    0    0    -1  
$EndComp
Connection ~ 10600 6900
Text Notes 12700 3000 0    60   ~ 0
SAFETY SYSTEM\n
Text GLabel 2000 4350 2    60   Input ~ 0
DCDC-
Wire Wire Line
	1950 4350 2000 4350
$Comp
L Vikings_actives:CD4043B U5
U 2 1 5B0F5B4A
P 11550 5850
F 0 "U5" H 11300 6050 60  0000 C CNN
F 1 "CD4043B" H 11700 5650 60  0000 C CNN
F 2 "Package_SO:SOIC-16_3.9x9.9mm_P1.27mm" H 11950 5750 60  0001 C CNN
F 3 "" H 11950 5750 60  0001 C CNN
	2    11550 5850
	1    0    0    -1  
$EndComp
Wire Wire Line
	11000 6800 10600 6800
Connection ~ 10600 6800
Wire Wire Line
	11000 6300 10600 6300
Connection ~ 10600 6300
Wire Wire Line
	10600 5800 11000 5800
Connection ~ 10600 5900
$Comp
L device:LED D4
U 1 1 5B0FCBA6
P 5050 3750
F 0 "D4" H 5050 3850 50  0000 C CNN
F 1 "LED" H 5050 3650 50  0000 C CNN
F 2 "Diode_SMD:D_0805_2012Metric" H 5050 3750 50  0001 C CNN
F 3 "" H 5050 3750 50  0001 C CNN
	1    5050 3750
	-1   0    0    1   
$EndComp
$Comp
L device:LED D3
U 1 1 5B0FCCCE
P 15200 3750
F 0 "D3" H 15200 3850 50  0000 C CNN
F 1 "LED" H 15200 3650 50  0000 C CNN
F 2 "Diode_SMD:D_0805_2012Metric" H 15200 3750 50  0001 C CNN
F 3 "" H 15200 3750 50  0001 C CNN
	1    15200 3750
	0    -1   -1   0   
$EndComp
Text GLabel 3150 7100 2    60   Input ~ 0
DCDC-
Wire Wire Line
	3100 7100 3150 7100
Text GLabel 1600 3250 0    60   Input ~ 0
DCDC+
$Comp
L power1:+12V #PWR017
U 1 1 5B0F9C68
P 12750 3200
F 0 "#PWR017" H 12750 3050 50  0001 C CNN
F 1 "+12V" H 12750 3340 50  0000 C CNN
F 2 "" H 12750 3200 50  0001 C CNN
F 3 "" H 12750 3200 50  0001 C CNN
	1    12750 3200
	-1   0    0    -1  
$EndComp
$Comp
L power1:+12V #PWR018
U 1 1 5B0F9F3E
P 13400 3200
F 0 "#PWR018" H 13400 3050 50  0001 C CNN
F 1 "+12V" H 13400 3340 50  0000 C CNN
F 2 "" H 13400 3200 50  0001 C CNN
F 3 "" H 13400 3200 50  0001 C CNN
	1    13400 3200
	-1   0    0    -1  
$EndComp
$Comp
L power1:+12V #PWR019
U 1 1 5B0F9FEE
P 13750 3200
F 0 "#PWR019" H 13750 3050 50  0001 C CNN
F 1 "+12V" H 13750 3340 50  0000 C CNN
F 2 "" H 13750 3200 50  0001 C CNN
F 3 "" H 13750 3200 50  0001 C CNN
	1    13750 3200
	-1   0    0    -1  
$EndComp
Wire Wire Line
	13400 3550 13400 3950
Wire Wire Line
	13400 3200 13400 3250
Wire Wire Line
	12750 3600 12750 3200
$Comp
L device:LED D6
U 1 1 5B10CF0A
P 4450 6550
F 0 "D6" H 4450 6650 50  0000 C CNN
F 1 "LED" H 4450 6450 50  0000 C CNN
F 2 "Diode_SMD:D_0805_2012Metric" H 4450 6550 50  0001 C CNN
F 3 "" H 4450 6550 50  0001 C CNN
	1    4450 6550
	-1   0    0    1   
$EndComp
Text GLabel 3900 3100 0    60   Input ~ 0
DCDC+
$Comp
L power1:GND #PWR07
U 1 1 5B115208
P 4250 1650
F 0 "#PWR07" H 4250 1400 50  0001 C CNN
F 1 "GND" H 4250 1500 50  0000 C CNN
F 2 "" H 4250 1650 50  0001 C CNN
F 3 "" H 4250 1650 50  0001 C CNN
	1    4250 1650
	1    0    0    -1  
$EndComp
$Comp
L power1:GND #PWR04
U 1 1 5B1157D4
P 2800 1200
F 0 "#PWR04" H 2800 950 50  0001 C CNN
F 1 "GND" H 2800 1050 50  0000 C CNN
F 2 "" H 2800 1200 50  0001 C CNN
F 3 "" H 2800 1200 50  0001 C CNN
	1    2800 1200
	1    0    0    -1  
$EndComp
Wire Wire Line
	1600 3250 1650 3250
$Comp
L power1:GND #PWR023
U 1 1 5B10D108
P 2900 4700
F 0 "#PWR023" H 2900 4450 50  0001 C CNN
F 1 "GND" H 2900 4550 50  0000 C CNN
F 2 "" H 2900 4700 50  0001 C CNN
F 3 "" H 2900 4700 50  0001 C CNN
	1    2900 4700
	1    0    0    -1  
$EndComp
$Comp
L power1:GND #PWR043
U 1 1 5B10DA92
P 4150 7100
F 0 "#PWR043" H 4150 6850 50  0001 C CNN
F 1 "GND" H 4150 6950 50  0000 C CNN
F 2 "" H 4150 7100 50  0001 C CNN
F 3 "" H 4150 7100 50  0001 C CNN
	1    4150 7100
	1    0    0    -1  
$EndComp
Wire Wire Line
	4150 6950 4150 7100
Wire Wire Line
	3500 6550 3650 6550
Text GLabel 14950 4350 2    60   Input ~ 0
BSPD_STATUS
$Comp
L BSPD-rescue:MMBT3904 Q1
U 1 1 5B152699
P 6250 3750
F 0 "Q1" H 6450 3825 50  0000 L CNN
F 1 "MMBT3904" H 6450 3750 50  0000 L CNN
F 2 "Package_TO_SOT_SMD:TSOT-23" H 6450 3675 50  0001 L CIN
F 3 "" H 6250 3750 50  0001 L CNN
	1    6250 3750
	1    0    0    -1  
$EndComp
$Comp
L BSPD-rescue:MMBT3904 Q4
U 1 1 5B1528FB
P 6250 4850
F 0 "Q4" H 6450 4925 50  0000 L CNN
F 1 "MMBT3904" H 6450 4850 50  0000 L CNN
F 2 "Package_TO_SOT_SMD:TSOT-23" H 6450 4775 50  0001 L CIN
F 3 "" H 6250 4850 50  0001 L CNN
	1    6250 4850
	1    0    0    -1  
$EndComp
$Comp
L device:R R29
U 1 1 5B1E8FE1
P 7200 6400
F 0 "R29" V 7300 6400 50  0000 C CNN
F 1 "33k" V 7200 6400 50  0000 C CNN
F 2 "Resistor_SMD:R_0805_2012Metric_Pad1.15x1.40mm_HandSolder" V 7130 6400 50  0001 C CNN
F 3 "" H 7200 6400 50  0001 C CNN
	1    7200 6400
	1    0    0    -1  
$EndComp
Wire Wire Line
	7200 6600 7200 6550
$Comp
L device:R R12
U 1 1 5B1F102D
P 1500 4500
F 0 "R12" V 1580 4500 50  0000 C CNN
F 1 "2,2k" V 1500 4500 50  0000 C CNN
F 2 "Resistor_SMD:R_0805_2012Metric_Pad1.15x1.40mm_HandSolder" V 1430 4500 50  0001 C CNN
F 3 "" H 1500 4500 50  0001 C CNN
	1    1500 4500
	1    0    0    -1  
$EndComp
Text Notes 1550 4400 0    60   ~ 0
2,6k
$Comp
L device:R R21
U 1 1 5B1F282F
P 6350 5300
F 0 "R21" V 6430 5300 50  0000 C CNN
F 1 "3,3k" V 6350 5300 50  0000 C CNN
F 2 "Resistor_SMD:R_0805_2012Metric_Pad1.15x1.40mm_HandSolder" V 6280 5300 50  0001 C CNN
F 3 "" H 6350 5300 50  0001 C CNN
	1    6350 5300
	-1   0    0    1   
$EndComp
Text Notes 7300 6200 0    60   ~ 0
95k
$Comp
L BSPD-rescue:L78L05_SO8 U1
U 1 1 5B2001AC
P 7400 1200
F 0 "U1" H 7250 1325 50  0000 C CNN
F 1 "L78L05_SO8" H 7400 1325 50  0000 L CNN
F 2 "Package_SO:SOIC-8_3.9x4.9mm_P1.27mm" H 7500 1400 50  0001 C CIN
F 3 "" H 7600 1200 50  0001 C CNN
	1    7400 1200
	-1   0    0    -1  
$EndComp
$Comp
L device:R R7
U 1 1 5B368B37
P 2500 3450
F 0 "R7" V 2580 3450 50  0000 C CNN
F 1 "10k" V 2500 3450 50  0000 C CNN
F 2 "Resistor_SMD:R_0805_2012Metric_Pad1.15x1.40mm_HandSolder" V 2430 3450 50  0001 C CNN
F 3 "" H 2500 3450 50  0001 C CNN
	1    2500 3450
	1    0    0    -1  
$EndComp
Wire Wire Line
	2500 3250 2500 3300
Connection ~ 1950 3250
Wire Wire Line
	2500 3800 2500 3600
$Comp
L device:D D5
U 1 1 5B369A58
P 2900 4200
F 0 "D5" H 2900 4300 50  0000 C CNN
F 1 "BAS16LT1" H 2900 4100 50  0000 C CNN
F 2 "Diode_SMD:D_SOT-23_ANK" H 2900 4200 50  0001 C CNN
F 3 "" H 2900 4200 50  0001 C CNN
	1    2900 4200
	0    1    1    0   
$EndComp
$Comp
L device:R R10
U 1 1 5B36A24B
P 2700 3800
F 0 "R10" V 2800 3800 50  0000 C CNN
F 1 "10k" V 2700 3800 50  0000 C CNN
F 2 "Resistor_SMD:R_0805_2012Metric_Pad1.15x1.40mm_HandSolder" V 2630 3800 50  0001 C CNN
F 3 "" H 2700 3800 50  0001 C CNN
	1    2700 3800
	0    1    1    0   
$EndComp
Connection ~ 2500 3800
Wire Wire Line
	2350 3800 2500 3800
$Comp
L device:R R28
U 1 1 5B36CC07
P 3650 6350
F 0 "R28" V 3730 6350 50  0000 C CNN
F 1 "10k" V 3650 6350 50  0000 C CNN
F 2 "Resistor_SMD:R_0805_2012Metric_Pad1.15x1.40mm_HandSolder" V 3580 6350 50  0001 C CNN
F 3 "" H 3650 6350 50  0001 C CNN
	1    3650 6350
	1    0    0    -1  
$EndComp
$Comp
L device:R R32
U 1 1 5B36CF09
P 3850 6550
F 0 "R32" V 3930 6550 50  0000 C CNN
F 1 "10k" V 3850 6550 50  0000 C CNN
F 2 "Resistor_SMD:R_0805_2012Metric_Pad1.15x1.40mm_HandSolder" V 3780 6550 50  0001 C CNN
F 3 "" H 3850 6550 50  0001 C CNN
	1    3850 6550
	0    1    1    0   
$EndComp
$Comp
L device:D D7
U 1 1 5B36DD0F
P 4150 6800
F 0 "D7" H 4150 6900 50  0000 C CNN
F 1 "BAS16LT1" H 4150 6700 50  0000 C CNN
F 2 "Diode_SMD:D_SOT-23_ANK" H 4150 6800 50  0001 C CNN
F 3 "" H 4150 6800 50  0001 C CNN
	1    4150 6800
	0    1    1    0   
$EndComp
Wire Wire Line
	3650 6500 3650 6550
Connection ~ 3650 6550
Wire Wire Line
	4000 6550 4150 6550
Wire Wire Line
	4150 6550 4150 6650
Connection ~ 4150 6550
Wire Wire Line
	3650 6200 3650 6100
Wire Wire Line
	3650 6100 3100 6100
Connection ~ 3100 6100
$Comp
L device:R R13
U 1 1 5B36FA2A
P 1800 4500
F 0 "R13" V 1880 4500 50  0000 C CNN
F 1 "2,2k" V 1800 4500 50  0000 C CNN
F 2 "Resistor_SMD:R_0805_2012Metric_Pad1.15x1.40mm_HandSolder" V 1730 4500 50  0001 C CNN
F 3 "" H 1800 4500 50  0001 C CNN
	1    1800 4500
	1    0    0    -1  
$EndComp
Wire Wire Line
	1800 4300 1800 4350
$Comp
L TEN8-1223:TEN8-1223 U3
U 1 1 5B3749B1
P 2150 1550
F 0 "U3" H 2150 2300 50  0000 C CNN
F 1 "TEN8-1223" H 2150 900 50  0000 C CNN
F 2 "Vikings_devices:TEN8-1223" H 2150 1550 50  0001 C CNN
F 3 "" H 2150 1550 50  0001 C CNN
	1    2150 1550
	1    0    0    -1  
$EndComp
$Comp
L power1:GND #PWR09
U 1 1 5B375BC8
P 2750 1850
F 0 "#PWR09" H 2750 1600 50  0001 C CNN
F 1 "GND" H 2750 1700 50  0000 C CNN
F 2 "" H 2750 1850 50  0001 C CNN
F 3 "" H 2750 1850 50  0001 C CNN
	1    2750 1850
	0    -1   -1   0   
$EndComp
$Comp
L power1:GND #PWR08
U 1 1 5B375F93
P 1600 1850
F 0 "#PWR08" H 1600 1600 50  0001 C CNN
F 1 "GND" H 1600 1700 50  0000 C CNN
F 2 "" H 1600 1850 50  0001 C CNN
F 3 "" H 1600 1850 50  0001 C CNN
	1    1600 1850
	0    1    1    0   
$EndComp
Text GLabel 9600 4350 0    60   Input ~ 0
DCDC+
Wire Wire Line
	8400 5300 8800 5300
Wire Wire Line
	8400 5500 8400 5300
$Comp
L device:R R23
U 1 1 5B37A55C
P 9300 5550
F 0 "R23" V 9380 5550 50  0000 C CNN
F 1 "10k" V 9300 5550 50  0000 C CNN
F 2 "Resistor_SMD:R_0805_2012Metric" V 9230 5550 50  0001 C CNN
F 3 "" H 9300 5550 50  0001 C CNN
	1    9300 5550
	-1   0    0    1   
$EndComp
$Comp
L power1:GND #PWR032
U 1 1 5B37AA1C
P 9300 5800
F 0 "#PWR032" H 9300 5550 50  0001 C CNN
F 1 "GND" H 9300 5650 50  0000 C CNN
F 2 "" H 9300 5800 50  0001 C CNN
F 3 "" H 9300 5800 50  0001 C CNN
	1    9300 5800
	1    0    0    -1  
$EndComp
$Comp
L power1:GND #PWR033
U 1 1 5B37AB1D
P 9700 5800
F 0 "#PWR033" H 9700 5550 50  0001 C CNN
F 1 "GND" H 9700 5650 50  0000 C CNN
F 2 "" H 9700 5800 50  0001 C CNN
F 3 "" H 9700 5800 50  0001 C CNN
	1    9700 5800
	1    0    0    -1  
$EndComp
Wire Wire Line
	9300 5700 9300 5800
Wire Wire Line
	9700 5800 9700 5500
Wire Wire Line
	9100 5300 9300 5300
Wire Wire Line
	9300 5300 9300 5400
Connection ~ 9300 5300
$Comp
L device:R R22
U 1 1 5B37B5B9
P 8950 5300
F 0 "R22" V 9030 5300 50  0000 C CNN
F 1 "33" V 8950 5300 50  0000 C CNN
F 2 "Resistor_SMD:R_0805_2012Metric" V 8880 5300 50  0001 C CNN
F 3 "" H 8950 5300 50  0001 C CNN
	1    8950 5300
	0    -1   -1   0   
$EndComp
$Comp
L device:R R15
U 1 1 5B37C0F4
P 9700 4550
F 0 "R15" V 9800 4550 50  0000 C CNN
F 1 "10k" V 9700 4550 50  0000 C CNN
F 2 "Resistor_SMD:R_0805_2012Metric" V 9630 4550 50  0001 C CNN
F 3 "" H 9700 4550 50  0001 C CNN
	1    9700 4550
	1    0    0    -1  
$EndComp
Wire Wire Line
	9700 5000 9700 5100
Wire Wire Line
	11200 4850 11300 4850
$Comp
L power1:GND #PWR034
U 1 1 5B37D96A
P 10050 5800
F 0 "#PWR034" H 10050 5550 50  0001 C CNN
F 1 "GND" H 10050 5650 50  0000 C CNN
F 2 "" H 10050 5800 50  0001 C CNN
F 3 "" H 10050 5800 50  0001 C CNN
	1    10050 5800
	1    0    0    -1  
$EndComp
Wire Wire Line
	10050 5800 10050 5200
$Comp
L device:R R16
U 1 1 5B37DD45
P 10050 4550
F 0 "R16" V 10150 4550 50  0000 C CNN
F 1 "10k" V 10050 4550 50  0000 C CNN
F 2 "Resistor_SMD:R_0805_2012Metric" V 9980 4550 50  0001 C CNN
F 3 "" H 10050 4550 50  0001 C CNN
	1    10050 4550
	1    0    0    -1  
$EndComp
Wire Wire Line
	10050 4700 10050 4750
Wire Wire Line
	10050 4750 11300 4750
Connection ~ 10050 4750
Wire Wire Line
	1750 3900 1650 3900
$Comp
L device:R R30
U 1 1 5B3821D0
P 7500 6400
F 0 "R30" V 7600 6400 50  0000 C CNN
F 1 "150k" V 7500 6400 50  0000 C CNN
F 2 "Resistor_SMD:R_0805_2012Metric_Pad1.15x1.40mm_HandSolder" V 7430 6400 50  0001 C CNN
F 3 "" H 7500 6400 50  0001 C CNN
	1    7500 6400
	1    0    0    -1  
$EndComp
Wire Wire Line
	7500 6250 7500 6200
Wire Wire Line
	7500 6200 7200 6200
Wire Wire Line
	7500 6550 7500 6600
Wire Wire Line
	7500 6600 7200 6600
Connection ~ 7200 6600
$Comp
L BSPD-rescue:2N7002 Q2
U 1 1 5B38CE53
P 13650 4500
F 0 "Q2" H 13850 4575 50  0000 L CNN
F 1 "2N7002" H 13850 4500 50  0000 L CNN
F 2 "Package_TO_SOT_SMD:TSOT-23" H 13850 4425 50  0001 L CIN
F 3 "" H 13650 4500 50  0001 L CNN
	1    13650 4500
	1    0    0    -1  
$EndComp
$Comp
L BSPD-rescue:2N7002 Q3
U 1 1 5B38D2A1
P 13150 4750
F 0 "Q3" H 13350 4825 50  0000 L CNN
F 1 "2N7002" H 13350 4750 50  0000 L CNN
F 2 "Package_TO_SOT_SMD:TSOT-23" H 13350 4675 50  0001 L CIN
F 3 "" H 13150 4750 50  0001 L CNN
	1    13150 4750
	1    0    0    -1  
$EndComp
$Comp
L BSPD-rescue:2N7002 Q5
U 1 1 5B38D3C4
P 9950 5000
F 0 "Q5" H 10150 5075 50  0000 L CNN
F 1 "2N7002" H 10150 5000 50  0000 L CNN
F 2 "Package_TO_SOT_SMD:TSOT-23" H 10150 4925 50  0001 L CIN
F 3 "" H 9950 5000 50  0001 L CNN
	1    9950 5000
	1    0    0    -1  
$EndComp
$Comp
L BSPD-rescue:2N7002 Q6
U 1 1 5B38D8F3
P 9600 5300
F 0 "Q6" H 9800 5375 50  0000 L CNN
F 1 "2N7002" H 9800 5300 50  0000 L CNN
F 2 "Package_TO_SOT_SMD:TSOT-23" H 9800 5225 50  0001 L CIN
F 3 "" H 9600 5300 50  0001 L CNN
	1    9600 5300
	1    0    0    -1  
$EndComp
$Comp
L HEF4071:HEF4071 U7
U 1 1 5B395324
P 3800 4050
F 0 "U7" H 4120 4710 60  0000 C CNN
F 1 "HEF4071" H 4170 3230 60  0000 C CNN
F 2 "Package_SO:SOIC-14_3.9x8.7mm_P1.27mm" H 3800 4050 60  0001 C CNN
F 3 "" H 3800 4050 60  0001 C CNN
	1    3800 4050
	1    0    0    -1  
$EndComp
Wire Wire Line
	3350 3700 3400 3700
$Comp
L power1:GND #PWR025
U 1 1 5B397C4E
P 3950 5150
F 0 "#PWR025" H 3950 4900 50  0001 C CNN
F 1 "GND" H 3950 5000 50  0000 C CNN
F 2 "" H 3950 5150 50  0001 C CNN
F 3 "" H 3950 5150 50  0001 C CNN
	1    3950 5150
	1    0    0    -1  
$EndComp
Wire Wire Line
	3250 4300 3400 4300
Wire Wire Line
	3400 4200 3250 4200
Wire Wire Line
	3250 3950 3250 4050
Connection ~ 3250 4300
Wire Wire Line
	3250 4050 3400 4050
Connection ~ 3250 4200
Wire Wire Line
	3250 3950 3400 3950
Connection ~ 3250 4050
Wire Wire Line
	3250 4450 3400 4450
NoConn ~ 4500 4250
NoConn ~ 4500 4000
Wire Wire Line
	11200 4900 11200 4850
Text Notes 9950 -1000 0    60   ~ 0
This part of the circuit is not necessary for the functionality of the BSPD but adds the possibility of interfacing the sensor signal to a microcontroller\nHAS-100-S will provide an ouput of -12 V to 12 V.\nThis is converted in the amplifier setup to a signal in the voltage range 0 V to 10 V for possible interfacing with microcontroller\n\n
$Comp
L BSPD-rescue:LM555 U4
U 1 1 5B565EFA
P 10800 1600
F 0 "U4" H 10400 1950 50  0000 L CNN
F 1 "LM555" H 10900 1950 50  0000 L CNN
F 2 "Package_SO:SOIC-8_3.9x4.9mm_P1.27mm" H 10800 1600 50  0001 C CNN
F 3 "" H 10800 1600 50  0001 C CNN
	1    10800 1600
	1    0    0    -1  
$EndComp
Text GLabel 10250 1850 3    60   Input ~ 0
DCDC+
Wire Wire Line
	10250 1850 10250 1800
Wire Wire Line
	10250 1800 10300 1800
$Comp
L device:C C5
U 1 1 5B566A59
P 10000 1850
F 0 "C5" H 10025 1950 50  0000 L CNN
F 1 "100n" H 9800 1750 50  0000 L CNN
F 2 "Capacitor_SMD:C_0805_2012Metric_Pad1.15x1.40mm_HandSolder" H 10038 1700 50  0001 C CNN
F 3 "" H 10000 1850 50  0001 C CNN
	1    10000 1850
	1    0    0    -1  
$EndComp
$Comp
L power1:GND #PWR013
U 1 1 5B566B56
P 10000 2050
F 0 "#PWR013" H 10000 1800 50  0001 C CNN
F 1 "GND" H 10000 1900 50  0000 C CNN
F 2 "" H 10000 2050 50  0001 C CNN
F 3 "" H 10000 2050 50  0001 C CNN
	1    10000 2050
	1    0    0    -1  
$EndComp
Wire Wire Line
	10000 1700 10000 1600
Wire Wire Line
	10000 1600 10300 1600
Wire Wire Line
	10000 2050 10000 2000
$Comp
L device:R R4
U 1 1 5B5670FF
P 9700 1850
F 0 "R4" V 9780 1850 50  0000 C CNN
F 1 "10k" V 9700 1850 50  0000 C CNN
F 2 "Resistor_SMD:R_0805_2012Metric" V 9630 1850 50  0001 C CNN
F 3 "" H 9700 1850 50  0001 C CNN
	1    9700 1850
	1    0    0    -1  
$EndComp
$Comp
L power1:GND #PWR012
U 1 1 5B567736
P 9700 2050
F 0 "#PWR012" H 9700 1800 50  0001 C CNN
F 1 "GND" H 9700 1900 50  0000 C CNN
F 2 "" H 9700 2050 50  0001 C CNN
F 3 "" H 9700 2050 50  0001 C CNN
	1    9700 2050
	1    0    0    -1  
$EndComp
Wire Wire Line
	9700 2050 9700 2000
Wire Wire Line
	9700 1350 9700 1400
Wire Wire Line
	9650 1400 9700 1400
$Comp
L device:D D1
U 1 1 5B567B22
P 9500 1400
F 0 "D1" H 9500 1300 50  0000 C CNN
F 1 "BAS16LT1" H 9500 1500 50  0000 C CNN
F 2 "Diode_SMD:D_SOT-23_ANK" H 9500 1400 50  0001 C CNN
F 3 "" H 9500 1400 50  0001 C CNN
	1    9500 1400
	-1   0    0    1   
$EndComp
$Comp
L device:C C4
U 1 1 5B567C57
P 9300 1850
F 0 "C4" H 9325 1950 50  0000 L CNN
F 1 "4,7µ" H 9325 1750 50  0000 L CNN
F 2 "Capacitor_SMD:C_0805_2012Metric_Pad1.15x1.40mm_HandSolder" H 9338 1700 50  0001 C CNN
F 3 "" H 9300 1850 50  0001 C CNN
	1    9300 1850
	1    0    0    -1  
$EndComp
$Comp
L power1:GND #PWR011
U 1 1 5B567D8A
P 9300 2050
F 0 "#PWR011" H 9300 1800 50  0001 C CNN
F 1 "GND" H 9300 1900 50  0000 C CNN
F 2 "" H 9300 2050 50  0001 C CNN
F 3 "" H 9300 2050 50  0001 C CNN
	1    9300 2050
	1    0    0    -1  
$EndComp
Wire Wire Line
	9300 2050 9300 2000
Wire Wire Line
	9300 1350 9300 1400
Wire Wire Line
	9300 1400 9350 1400
Connection ~ 9700 1400
$Comp
L device:R R1
U 1 1 5B568634
P 9300 1200
F 0 "R1" V 9380 1200 50  0000 C CNN
F 1 "10k" V 9300 1200 50  0000 C CNN
F 2 "Resistor_SMD:R_0805_2012Metric" V 9230 1200 50  0001 C CNN
F 3 "" H 9300 1200 50  0001 C CNN
	1    9300 1200
	1    0    0    -1  
$EndComp
Connection ~ 9300 1400
$Comp
L device:C C1
U 1 1 5B569CAC
P 9700 1200
F 0 "C1" H 9725 1300 50  0000 L CNN
F 1 "1µ" H 9725 1100 50  0000 L CNN
F 2 "Capacitor_SMD:C_0805_2012Metric_Pad1.15x1.40mm_HandSolder" H 9738 1050 50  0001 C CNN
F 3 "" H 9700 1200 50  0001 C CNN
	1    9700 1200
	1    0    0    -1  
$EndComp
Text GLabel 9300 1000 1    60   Input ~ 0
DCDC+
Text GLabel 9700 1000 1    60   Input ~ 0
DCDC+
Wire Wire Line
	9700 1000 9700 1050
Wire Wire Line
	9300 1000 9300 1050
Text GLabel 10800 1000 1    60   Input ~ 0
DCDC+
Wire Wire Line
	10800 1000 10800 1200
$Comp
L power1:GND #PWR014
U 1 1 5B56AECE
P 10800 2050
F 0 "#PWR014" H 10800 1800 50  0001 C CNN
F 1 "GND" H 10800 1900 50  0000 C CNN
F 2 "" H 10800 2050 50  0001 C CNN
F 3 "" H 10800 2050 50  0001 C CNN
	1    10800 2050
	1    0    0    -1  
$EndComp
Wire Wire Line
	10800 2050 10800 2000
$Comp
L power1:GND #PWR015
U 1 1 5B56B6E6
P 11600 2050
F 0 "#PWR015" H 11600 1800 50  0001 C CNN
F 1 "GND" H 11600 1900 50  0000 C CNN
F 2 "" H 11600 2050 50  0001 C CNN
F 3 "" H 11600 2050 50  0001 C CNN
	1    11600 2050
	1    0    0    -1  
$EndComp
$Comp
L device:C C6
U 1 1 5B56B802
P 11600 1850
F 0 "C6" H 11625 1950 50  0000 L CNN
F 1 "4,7µ" H 11625 1750 50  0000 L CNN
F 2 "Capacitor_SMD:C_0805_2012Metric_Pad1.15x1.40mm_HandSolder" H 11638 1700 50  0001 C CNN
F 3 "" H 11600 1850 50  0001 C CNN
	1    11600 1850
	1    0    0    -1  
$EndComp
Wire Wire Line
	11300 1800 11350 1800
Wire Wire Line
	11350 1800 11350 1600
Wire Wire Line
	11300 1600 11350 1600
Wire Wire Line
	11600 1550 11600 1600
Connection ~ 11350 1600
$Comp
L device:R R2
U 1 1 5B56C13E
P 11600 1400
F 0 "R2" V 11680 1400 50  0000 C CNN
F 1 "10k" V 11600 1400 50  0000 C CNN
F 2 "Resistor_SMD:R_0805_2012Metric" V 11530 1400 50  0001 C CNN
F 3 "" H 11600 1400 50  0001 C CNN
	1    11600 1400
	1    0    0    -1  
$EndComp
Text GLabel 11600 1000 1    60   Input ~ 0
DCDC+
Connection ~ 11600 1600
Wire Wire Line
	11600 1250 11600 1000
Wire Wire Line
	1500 1050 1500 1150
Wire Wire Line
	2800 1150 2800 1200
Wire Wire Line
	1650 3250 1950 3250
Wire Wire Line
	2850 6650 2850 6350
Wire Wire Line
	13250 4500 13450 4500
Wire Wire Line
	7400 1550 6850 1550
Wire Wire Line
	7400 1550 7400 1600
Wire Wire Line
	8350 5650 8750 5650
Wire Wire Line
	8750 5650 8750 5700
Wire Wire Line
	8000 1200 8000 1250
Wire Wire Line
	6850 1200 7100 1200
Wire Wire Line
	12900 4750 12950 4750
Wire Wire Line
	10600 6400 10600 6800
Wire Wire Line
	10600 6900 10600 6950
Wire Wire Line
	10600 6800 10600 6900
Wire Wire Line
	10600 6300 10600 6400
Wire Wire Line
	10600 5900 10600 6300
Wire Wire Line
	13400 3950 13750 3950
Wire Wire Line
	1950 3250 2500 3250
Wire Wire Line
	2500 3800 2550 3800
Wire Wire Line
	3650 6550 3700 6550
Wire Wire Line
	4150 6550 4300 6550
Wire Wire Line
	3100 6100 3100 6250
Wire Wire Line
	9300 5300 9400 5300
Wire Wire Line
	9700 5000 9750 5000
Wire Wire Line
	10050 4750 10050 4800
Wire Wire Line
	3250 4300 3250 4450
Wire Wire Line
	3250 4200 3250 4300
Wire Wire Line
	3250 4050 3250 4200
Wire Wire Line
	9700 1400 9700 1700
Wire Wire Line
	9700 1400 10300 1400
Wire Wire Line
	9300 1400 9300 1700
Wire Wire Line
	11350 1600 11600 1600
Wire Wire Line
	11600 1600 11600 1700
$Sheet
S 12700 850  1600 250 
U 5B6518BC
F0 "Sheet5B6518BB" 60
F1 "Current_Measurement.sch" 60
F2 "Current_Sensor_Output" I L 12700 900 60 
F3 "Analog_HV_Current_Measurement" O R 14300 1000 60 
$EndSheet
Wire Wire Line
	1650 3600 1650 3900
Wire Wire Line
	1650 3950 1650 3900
Connection ~ 1650 3900
Wire Wire Line
	1500 4350 1500 4300
Wire Wire Line
	1500 4300 1650 4300
Wire Wire Line
	1650 4300 1650 4250
Connection ~ 1650 4300
Wire Wire Line
	1650 4300 1800 4300
Wire Wire Line
	1500 4650 1650 4650
Wire Wire Line
	1650 4700 1650 4650
Connection ~ 1650 4650
Wire Wire Line
	1650 4650 1800 4650
Wire Wire Line
	2850 3800 2900 3800
Wire Wire Line
	2900 4050 2900 3800
Wire Wire Line
	2900 4350 2900 4700
Text GLabel 4750 1500 2    60   Input ~ 0
Current_Sensor
Text GLabel 12600 900  0    60   Input ~ 0
Current_Sensor
Wire Wire Line
	12600 900  12700 900 
Wire Wire Line
	4200 1500 4700 1500
Wire Wire Line
	4200 1600 4250 1600
Wire Wire Line
	4250 1650 4250 1600
Connection ~ 4250 1600
Wire Wire Line
	4250 1600 4350 1600
Wire Wire Line
	4700 1600 4700 1500
Wire Wire Line
	4750 1500 4700 1500
Connection ~ 4700 1500
Text GLabel 1600 3700 0    60   Input ~ 0
Current_Sensor
Wire Wire Line
	1600 3700 1750 3700
Text Notes 3550 1000 0    60   ~ 0
HAS 100-S \nHall Effect Sensor
Text Notes 650  750  0    60   ~ 0
TEN8-1223\n+-15 V DCDC-converter\n
Text GLabel 3250 3550 0    60   Input ~ 0
BSPD_TEST
Wire Wire Line
	3900 3100 3950 3100
Wire Wire Line
	3950 3100 3950 3150
Text Notes 5950 800  0    60   ~ 0
LM7805\n5V Linear Voltage Regulator\n
Text Notes 8550 750  0    60   ~ 0
555-timer\nLatch Reset
Wire Notes Line
	11850 550  11850 2350
Wire Notes Line
	600  550  600  2350
Text GLabel 11350 1200 1    60   Input ~ 0
Latch_Reset
Wire Wire Line
	11350 1400 11300 1400
Wire Wire Line
	11600 2050 11600 2000
Wire Notes Line
	8400 550  8400 2350
Wire Notes Line
	5800 550  5800 2350
Wire Notes Line
	3150 550  3150 2350
Text GLabel 11150 4850 0    60   Input ~ 0
Latch_Reset
Wire Wire Line
	11150 4850 11200 4850
Connection ~ 11200 4850
$Comp
L power1:GND #PWR024
U 1 1 5BB34847
P 3250 5150
F 0 "#PWR024" H 3250 4900 50  0001 C CNN
F 1 "GND" H 3250 5000 50  0000 C CNN
F 2 "" H 3250 5150 50  0001 C CNN
F 3 "" H 3250 5150 50  0001 C CNN
	1    3250 5150
	1    0    0    -1  
$EndComp
Wire Wire Line
	3950 5150 3950 5100
Wire Wire Line
	6300 3450 6350 3450
Wire Wire Line
	6350 3450 6350 3550
NoConn ~ 4500 4500
Wire Notes Line
	5250 2850 5250 5400
Wire Notes Line
	5250 5400 550  5400
Wire Notes Line
	550  5400 550  2850
Wire Notes Line
	550  2850 5250 2850
Wire Notes Line
	5250 7400 5250 5550
Wire Notes Line
	550  5550 5250 5550
Wire Notes Line
	550  7400 5250 7400
Wire Wire Line
	6350 5900 6350 5850
Wire Wire Line
	6350 5550 6350 5500
Wire Wire Line
	6350 5150 6350 5100
Connection ~ 6350 5500
Wire Wire Line
	6350 5500 6350 5450
Wire Wire Line
	7050 5700 7050 5650
Wire Wire Line
	7200 6200 7200 6150
Connection ~ 7200 6200
Wire Wire Line
	6350 5500 7250 5500
Wire Notes Line
	12250 2850 5800 2850
Wire Notes Line
	5800 2850 5800 7350
Wire Notes Line
	5800 7350 12250 7350
Wire Notes Line
	12250 2850 12250 7350
Text Notes 14800 900  0    60   ~ 0
Controller
Wire Notes Line
	15800 2350 15800 550 
Wire Notes Line
	600  2350 15800 2350
Wire Notes Line
	600  550  15800 550 
Text Notes 11950 700  0    60   ~ 0
Connectors
$Comp
L device:R R20
U 1 1 5BE24DFA
P 6150 5300
F 0 "R20" V 6230 5300 50  0000 C CNN
F 1 "3,3k" V 6150 5300 50  0000 C CNN
F 2 "Resistor_SMD:R_0805_2012Metric_Pad1.15x1.40mm_HandSolder" V 6080 5300 50  0001 C CNN
F 3 "" H 6150 5300 50  0001 C CNN
	1    6150 5300
	-1   0    0    1   
$EndComp
Wire Wire Line
	6150 5450 6150 5500
Wire Wire Line
	6150 5500 6350 5500
Wire Wire Line
	6150 5150 6150 5100
Wire Wire Line
	6150 5100 6350 5100
Wire Wire Line
	6350 5100 6350 5050
Connection ~ 6350 5100
Wire Wire Line
	6350 4650 6350 3950
Text Notes 6450 5300 0    60   ~ 0
1650
Wire Wire Line
	9600 4350 9700 4350
Wire Wire Line
	9700 4350 9700 4400
Wire Wire Line
	9700 4350 10050 4350
Wire Wire Line
	10050 4350 10050 4400
Connection ~ 9700 4350
Wire Wire Line
	9700 4700 9700 5000
Connection ~ 9700 5000
Text Notes 4500 3550 0    60   ~ 0
HV Current\nSignal Indicator
Text Notes 4350 6350 0    60   ~ 0
Brake Signal\nIndicator
Wire Wire Line
	11350 1200 11350 1400
$Comp
L Vikings_actives:CD4041UB U8
U 1 1 5BEC3163
P 14550 4300
F 0 "U8" H 14450 4100 60  0000 C CNN
F 1 "CD4041UB" H 14450 4531 60  0000 C CNN
F 2 "Package_SO:SOIC-14_3.9x8.7mm_P1.27mm" H 14950 4200 60  0001 C CNN
F 3 "" H 14950 4200 60  0001 C CNN
	1    14550 4300
	1    0    0    -1  
$EndComp
$Comp
L device:R R14
U 1 1 5B114DD5
P 3250 4750
F 0 "R14" V 3330 4750 50  0000 C CNN
F 1 "10k" V 3250 4750 50  0000 C CNN
F 2 "Resistor_SMD:R_0805_2012Metric" V 3180 4750 50  0001 C CNN
F 3 "" H 3250 4750 50  0001 C CNN
	1    3250 4750
	1    0    0    -1  
$EndComp
Wire Wire Line
	3250 4450 3250 4550
Wire Wire Line
	3250 4550 3400 4550
Connection ~ 3250 4450
Connection ~ 13750 3950
Wire Wire Line
	13250 4500 12750 4500
Wire Wire Line
	12750 4500 12750 3900
Connection ~ 13250 4500
Wire Wire Line
	4600 6550 5550 6550
Wire Wire Line
	5550 6550 5550 4850
Wire Wire Line
	5550 4850 6050 4850
Wire Wire Line
	12400 4750 12550 4750
$Comp
L Vikings_actives:CD4041UB U8
U 2 1 5B719370
P 14650 5050
F 0 "U8" H 14550 5387 60  0000 C CNN
F 1 "CD4041UB" H 14550 5281 60  0000 C CNN
F 2 "Package_SO:SOIC-14_3.9x8.7mm_P1.27mm" H 15050 4950 60  0001 C CNN
F 3 "" H 15050 4950 60  0001 C CNN
	2    14650 5050
	1    0    0    -1  
$EndComp
$Comp
L Vikings_actives:CD4041UB U8
U 3 1 5B719477
P 14650 5650
F 0 "U8" H 14550 5987 60  0000 C CNN
F 1 "CD4041UB" H 14550 5881 60  0000 C CNN
F 2 "Package_SO:SOIC-14_3.9x8.7mm_P1.27mm" H 15050 5550 60  0001 C CNN
F 3 "" H 15050 5550 60  0001 C CNN
	3    14650 5650
	1    0    0    -1  
$EndComp
$Comp
L Vikings_actives:CD4041UB U8
U 4 1 5B719558
P 14650 6250
F 0 "U8" H 14550 6587 60  0000 C CNN
F 1 "CD4041UB" H 14550 6481 60  0000 C CNN
F 2 "Package_SO:SOIC-14_3.9x8.7mm_P1.27mm" H 15050 6150 60  0001 C CNN
F 3 "" H 15050 6150 60  0001 C CNN
	4    14650 6250
	1    0    0    -1  
$EndComp
$Comp
L Vikings_actives:CD4041UB U8
U 5 1 5B719629
P 14650 6850
F 0 "U8" H 14656 7197 60  0000 C CNN
F 1 "CD4041UB" H 14656 7091 60  0000 C CNN
F 2 "Package_SO:SOIC-14_3.9x8.7mm_P1.27mm" H 15050 6750 60  0001 C CNN
F 3 "" H 15050 6750 60  0001 C CNN
	5    14650 6850
	1    0    0    -1  
$EndComp
Wire Notes Line
	12500 2850 12500 7350
NoConn ~ 15000 6300
NoConn ~ 15000 6200
NoConn ~ 15000 5700
NoConn ~ 15000 5600
NoConn ~ 15000 5100
NoConn ~ 15000 5000
$Comp
L power1:GND #PWR042
U 1 1 5B7CF1B7
P 15050 7000
F 0 "#PWR042" H 15050 6750 50  0001 C CNN
F 1 "GND" H 15050 6850 50  0000 C CNN
F 2 "" H 15050 7000 50  0001 C CNN
F 3 "" H 15050 7000 50  0001 C CNN
	1    15050 7000
	1    0    0    -1  
$EndComp
Wire Wire Line
	15050 7000 15050 6950
Wire Wire Line
	15050 6950 15000 6950
$Comp
L power1:GND #PWR037
U 1 1 5B7DFE32
P 14050 6350
F 0 "#PWR037" H 14050 6100 50  0001 C CNN
F 1 "GND" H 14050 6200 50  0000 C CNN
F 2 "" H 14050 6350 50  0001 C CNN
F 3 "" H 14050 6350 50  0001 C CNN
	1    14050 6350
	1    0    0    -1  
$EndComp
Wire Wire Line
	14050 6350 14050 6200
Wire Wire Line
	14050 6200 14100 6200
Wire Wire Line
	14050 6200 14050 5600
Wire Wire Line
	14050 5600 14100 5600
Connection ~ 14050 6200
Wire Wire Line
	14050 5600 14050 5000
Wire Wire Line
	14050 5000 14100 5000
Connection ~ 14050 5600
Wire Wire Line
	15050 6750 15000 6750
$Comp
L power1:+12V #PWR040
U 1 1 5B82574C
P 15050 6700
F 0 "#PWR040" H 15050 6550 50  0001 C CNN
F 1 "+12V" H 15050 6840 50  0000 C CNN
F 2 "" H 15050 6700 50  0001 C CNN
F 3 "" H 15050 6700 50  0001 C CNN
	1    15050 6700
	-1   0    0    -1  
$EndComp
Wire Wire Line
	15050 6750 15050 6700
Wire Wire Line
	13750 3950 13750 4250
Wire Wire Line
	14000 4250 13750 4250
Connection ~ 13750 4250
Wire Wire Line
	13750 4250 13750 4300
Wire Notes Line
	16000 2850 16000 7350
Wire Notes Line
	12500 2850 16000 2850
Wire Notes Line
	12500 7350 16000 7350
$Comp
L device:R R5
U 1 1 5B8C5D71
P 15200 3400
F 0 "R5" V 15300 3400 50  0000 C CNN
F 1 "10k" V 15200 3400 50  0000 C CNN
F 2 "Resistor_SMD:R_0805_2012Metric" V 15130 3400 50  0001 C CNN
F 3 "" H 15200 3400 50  0001 C CNN
	1    15200 3400
	1    0    0    -1  
$EndComp
Wire Wire Line
	8750 6200 8750 6250
Wire Wire Line
	8200 6200 8750 6200
Wire Wire Line
	8750 6000 8750 6200
Connection ~ 8750 6200
$Comp
L power1:+12V #PWR020
U 1 1 5B934039
P 15200 3200
F 0 "#PWR020" H 15200 3050 50  0001 C CNN
F 1 "+12V" H 15200 3340 50  0000 C CNN
F 2 "" H 15200 3200 50  0001 C CNN
F 3 "" H 15200 3200 50  0001 C CNN
	1    15200 3200
	-1   0    0    -1  
$EndComp
Wire Wire Line
	14950 4350 14900 4350
Wire Wire Line
	14900 4250 15200 4250
Wire Wire Line
	15200 4250 15200 3900
Wire Wire Line
	15200 3600 15200 3550
Wire Wire Line
	15200 3250 15200 3200
Text Notes 15400 3850 0    60   ~ 0
Relay On\nIndicator
Wire Wire Line
	8750 6550 8750 6600
Wire Wire Line
	3250 5150 3250 4900
Wire Wire Line
	3250 4600 3250 4550
Connection ~ 3250 4550
$Comp
L device:D D9
U 1 1 5BA0F398
P 3100 3800
F 0 "D9" H 3100 3900 50  0000 C CNN
F 1 "BAS16LT1" H 3100 3700 50  0000 C CNN
F 2 "Diode_SMD:D_SOT-23_ANK" H 3100 3800 50  0001 C CNN
F 3 "" H 3100 3800 50  0001 C CNN
	1    3100 3800
	-1   0    0    1   
$EndComp
Wire Wire Line
	2900 3800 2950 3800
Connection ~ 2900 3800
Wire Wire Line
	3250 3800 3400 3800
Wire Wire Line
	3250 3550 3350 3550
Wire Wire Line
	3350 3550 3350 3700
$Comp
L device:R R46
U 1 1 5BA44AB5
P 4700 3750
F 0 "R46" V 4780 3750 50  0000 C CNN
F 1 "10k" V 4700 3750 50  0000 C CNN
F 2 "Resistor_SMD:R_0805_2012Metric_Pad1.15x1.40mm_HandSolder" V 4630 3750 50  0001 C CNN
F 3 "" H 4700 3750 50  0001 C CNN
	1    4700 3750
	0    1    1    0   
$EndComp
Wire Wire Line
	4500 3750 4550 3750
Wire Wire Line
	4850 3750 4900 3750
Wire Wire Line
	5200 3750 6050 3750
Wire Wire Line
	14700 2050 14850 2050
Wire Wire Line
	14700 1950 14850 1950
Wire Wire Line
	14700 1000 14700 1100
Wire Wire Line
	14300 1000 14700 1000
Wire Wire Line
	14700 1100 15150 1100
$EndSCHEMATC
