EESchema Schematic File Version 2
LIBS:power
LIBS:device
LIBS:switches
LIBS:relays
LIBS:motors
LIBS:transistors
LIBS:conn
LIBS:linear
LIBS:regul
LIBS:74xx
LIBS:cmos4000
LIBS:adc-dac
LIBS:memory
LIBS:xilinx
LIBS:microcontrollers
LIBS:dsp
LIBS:microchip
LIBS:analog_switches
LIBS:motorola
LIBS:texas
LIBS:intel
LIBS:audio
LIBS:interface
LIBS:digital-audio
LIBS:philips
LIBS:display
LIBS:cypress
LIBS:siliconi
LIBS:opto
LIBS:atmel
LIBS:contrib
LIBS:valves
LIBS:LEM_HAS_100-S
LIBS:TEN8-1223
LIBS:Vikings_actives
LIBS:Vikings_connectors
LIBS:Vikings_misc
LIBS:Vikings_passives
LIBS:HEF4071
LIBS:BSPD-cache
EELAYER 25 0
EELAYER END
$Descr A3 16535 11693
encoding utf-8
Sheet 1 1
Title "Brake System Plausibility Device"
Date "2018-05-28"
Rev "v0.1"
Comp "Christian Eberhardt"
Comment1 ""
Comment2 ""
Comment3 ""
Comment4 ""
$EndDescr
$Comp
L +12V #PWR01
U 1 1 5B0C34C7
P 1950 8450
F 0 "#PWR01" H 1950 8300 50  0001 C CNN
F 1 "+12V" H 1950 8590 50  0000 C CNN
F 2 "" H 1950 8450 50  0001 C CNN
F 3 "" H 1950 8450 50  0001 C CNN
	1    1950 8450
	1    0    0    -1  
$EndComp
Wire Wire Line
	1950 8450 1950 8600
Wire Wire Line
	1950 8500 2050 8500
Wire Wire Line
	1950 8600 2050 8600
Connection ~ 1950 8500
Wire Wire Line
	3200 8600 3250 8600
Wire Wire Line
	3250 8500 3250 8650
Wire Wire Line
	3250 8500 3200 8500
Connection ~ 3250 8600
$Comp
L R R15
U 1 1 5B0C3611
P 1550 3800
F 0 "R15" V 1630 3800 50  0000 C CNN
F 1 "100k" V 1550 3800 50  0000 C CNN
F 2 "Resistors_SMD:R_0805_HandSoldering" V 1480 3800 50  0001 C CNN
F 3 "" H 1550 3800 50  0001 C CNN
	1    1550 3800
	0    1    1    0   
$EndComp
$Comp
L LM2903 U5
U 1 1 5B0C3A0B
P 2600 3800
F 0 "U5" H 2750 3950 50  0000 C CNN
F 1 "LM2903" H 2700 3600 50  0000 C CNN
F 2 "Housings_SOIC:SOIC-8_3.9x4.9mm_Pitch1.27mm" H 2600 3800 50  0001 C CNN
F 3 "" H 2600 3800 50  0001 C CNN
	1    2600 3800
	1    0    0    -1  
$EndComp
$Comp
L HAS_100-S U4
U 1 1 5B0D7683
P 1050 3650
F 0 "U4" H 850 3950 60  0000 C CNN
F 1 "HAS_100-S" H 850 3350 60  0000 C CNN
F 2 "Connectors_Molex:Molex_KK-6410-04_04x2.54mm_Straight" H 1050 3650 60  0001 C CNN
F 3 "" H 1050 3650 60  0001 C CNN
	1    1050 3650
	1    0    0    -1  
$EndComp
Wire Wire Line
	1250 3800 1400 3800
Wire Wire Line
	1300 3800 1300 3850
Connection ~ 1300 3800
NoConn ~ 3200 8400
$Comp
L CD4043B U6
U 1 1 5B0D77B0
P 12350 4450
F 0 "U6" H 12100 4650 60  0000 C CNN
F 1 "CD4043B" H 12500 4250 60  0000 C CNN
F 2 "Housings_SOIC:SOIC-16_3.9x9.9mm_Pitch1.27mm" H 12750 4350 60  0001 C CNN
F 3 "" H 12750 4350 60  0001 C CNN
	1    12350 4450
	1    0    0    -1  
$EndComp
$Comp
L R R30
U 1 1 5B0D7937
P 7300 5550
F 0 "R30" V 7380 5550 50  0000 C CNN
F 1 "10k" V 7300 5550 50  0000 C CNN
F 2 "Resistors_SMD:R_0805" V 7230 5550 50  0001 C CNN
F 3 "" H 7300 5550 50  0001 C CNN
	1    7300 5550
	-1   0    0    1   
$EndComp
$Comp
L R R23
U 1 1 5B0D7AFF
P 11700 4700
F 0 "R23" V 11780 4700 50  0000 C CNN
F 1 "10k" V 11700 4700 50  0000 C CNN
F 2 "Resistors_SMD:R_0805" V 11630 4700 50  0001 C CNN
F 3 "" H 11700 4700 50  0001 C CNN
	1    11700 4700
	-1   0    0    1   
$EndComp
Wire Wire Line
	6900 4700 6900 4650
$Comp
L R R24
U 1 1 5B0D8493
P 6400 4900
F 0 "R24" V 6480 4900 50  0000 C CNN
F 1 "1k" V 6400 4900 50  0000 C CNN
F 2 "Resistors_SMD:R_0805_HandSoldering" V 6330 4900 50  0001 C CNN
F 3 "" H 6400 4900 50  0001 C CNN
	1    6400 4900
	0    -1   -1   0   
$EndComp
$Comp
L R R20
U 1 1 5B0D84D3
P 6400 4450
F 0 "R20" V 6480 4450 50  0000 C CNN
F 1 "1k" V 6400 4450 50  0000 C CNN
F 2 "Resistors_SMD:R_0805_HandSoldering" V 6330 4450 50  0001 C CNN
F 3 "" H 6400 4450 50  0001 C CNN
	1    6400 4450
	0    1    1    0   
$EndComp
Wire Wire Line
	6550 4450 6600 4450
Wire Wire Line
	6550 4900 6600 4900
$Comp
L R R16
U 1 1 5B0D8675
P 2000 3850
F 0 "R16" V 2080 3850 50  0000 C CNN
F 1 "2,2k" V 2000 3850 50  0000 C CNN
F 2 "Resistors_SMD:R_0805_HandSoldering" V 1930 3850 50  0001 C CNN
F 3 "" H 2000 3850 50  0001 C CNN
	1    2000 3850
	0    -1   -1   0   
$EndComp
$Comp
L R R12
U 1 1 5B0D8793
P 2200 3450
F 0 "R12" V 2280 3450 50  0000 C CNN
F 1 "100k" V 2200 3450 50  0000 C CNN
F 2 "Resistors_SMD:R_0805_HandSoldering" V 2130 3450 50  0001 C CNN
F 3 "" H 2200 3450 50  0001 C CNN
	1    2200 3450
	1    0    0    -1  
$EndComp
Wire Wire Line
	2500 3250 2500 3500
Connection ~ 2200 3250
Wire Wire Line
	1250 3700 2300 3700
Wire Wire Line
	2500 4100 2500 4350
$Comp
L LM2903 U5
U 2 1 5B0D9AD5
P 2600 5650
F 0 "U5" H 2750 5800 50  0000 C CNN
F 1 "LM2903" H 2850 5500 50  0000 C CNN
F 2 "Housings_SOIC:SOIC-8_3.9x4.9mm_Pitch1.27mm" H 2600 5650 50  0001 C CNN
F 3 "" H 2600 5650 50  0001 C CNN
	2    2600 5650
	1    0    0    -1  
$EndComp
Text GLabel 2150 1100 2    60   Input ~ 0
DCDC+
Text GLabel 2500 5100 1    60   Input ~ 0
DCDC+
Wire Wire Line
	2500 5100 2500 5350
$Comp
L R R33
U 1 1 5B0D9F9C
P 2250 5950
F 0 "R33" V 2330 5950 50  0000 C CNN
F 1 "10k" V 2250 5950 50  0000 C CNN
F 2 "Resistors_SMD:R_0805_HandSoldering" V 2180 5950 50  0001 C CNN
F 3 "" H 2250 5950 50  0001 C CNN
	1    2250 5950
	1    0    0    -1  
$EndComp
$Comp
L R R27
U 1 1 5B0DA0F8
P 2250 5300
F 0 "R27" V 2330 5300 50  0000 C CNN
F 1 "10k" V 2250 5300 50  0000 C CNN
F 2 "Resistors_SMD:R_0805_HandSoldering" V 2180 5300 50  0001 C CNN
F 3 "" H 2250 5300 50  0001 C CNN
	1    2250 5300
	1    0    0    -1  
$EndComp
Wire Wire Line
	2250 5800 2250 5450
Wire Wire Line
	2300 5750 2250 5750
Connection ~ 2250 5750
Wire Wire Line
	2250 6100 2250 6150
Wire Wire Line
	2500 5950 2500 6200
Wire Wire Line
	5550 4900 6250 4900
$Comp
L Conn_01x03 J1
U 1 1 5B0DA8BF
P 4300 8900
F 0 "J1" H 4300 9100 50  0000 C CNN
F 1 "Conn_01x03" H 4300 8700 50  0000 C CNN
F 2 "Connectors_Molex:Molex_KK-6410-03_03x2.54mm_Straight" H 4300 8900 50  0001 C CNN
F 3 "" H 4300 8900 50  0001 C CNN
	1    4300 8900
	-1   0    0    -1  
$EndComp
Text GLabel 4500 8800 2    60   Input ~ 0
Analog_5v
Text GLabel 4500 8900 2    60   Input ~ 0
Brake_Signal
Text GLabel 4500 9000 2    60   Input ~ 0
Analog_GND
Text Notes 4200 8650 0    60   ~ 0
From Brake Pressure Sensor\n
$Comp
L Conn_01x02 J3
U 1 1 5B0DAB02
P 4450 9950
F 0 "J3" H 4450 10050 50  0000 C CNN
F 1 "Conn_01x02" H 4450 9750 50  0000 C CNN
F 2 "Connectors_Molex:Molex_KK-6410-02_02x2.54mm_Straight" H 4450 9950 50  0001 C CNN
F 3 "" H 4450 9950 50  0001 C CNN
	1    4450 9950
	-1   0    0    -1  
$EndComp
$Comp
L +12V #PWR02
U 1 1 5B0DACBE
P 4800 9900
F 0 "#PWR02" H 4800 9750 50  0001 C CNN
F 1 "+12V" H 4800 10040 50  0000 C CNN
F 2 "" H 4800 9900 50  0001 C CNN
F 3 "" H 4800 9900 50  0001 C CNN
	1    4800 9900
	1    0    0    -1  
$EndComp
Text Notes 3900 9750 0    60   ~ 0
From HVD-print
$Comp
L Conn_01x02 J4
U 1 1 5B0DAFE0
P 6000 9950
F 0 "J4" H 6000 10050 50  0000 C CNN
F 1 "Conn_01x02" H 6000 9750 50  0000 C CNN
F 2 "Connectors_Molex:Molex_KK-6410-02_02x2.54mm_Straight" H 6000 9950 50  0001 C CNN
F 3 "" H 6000 9950 50  0001 C CNN
	1    6000 9950
	-1   0    0    -1  
$EndComp
Text GLabel 6200 9950 2    60   Input ~ 0
SC_IN
Text GLabel 6200 10050 2    60   Input ~ 0
SC_OUT
Text Notes 5700 9800 0    60   ~ 0
From around the car\n- in interlock\n
Text GLabel 6550 8800 0    60   Input ~ 0
BSPD_STATUS
Text GLabel 6550 8900 0    60   Input ~ 0
Analog_HV_current
Text GLabel 6550 9000 0    60   Input ~ 0
BSPD_TEST
Text GLabel 4250 3650 1    60   Input ~ 0
BSPD_TEST
$Comp
L Conn_01x04 J2
U 1 1 5B0DB5A5
P 6750 8900
F 0 "J2" H 6750 9100 50  0000 C CNN
F 1 "Conn_01x04" H 6750 8600 50  0000 C CNN
F 2 "Connectors_Molex:Molex_KK-6410-04_04x2.54mm_Straight" H 6750 8900 50  0001 C CNN
F 3 "" H 6750 8900 50  0001 C CNN
	1    6750 8900
	1    0    0    -1  
$EndComp
Text GLabel 2050 5100 0    60   Input ~ 0
Analog_5v
Text GLabel 2000 5550 0    60   Input ~ 0
Brake_Signal
Wire Wire Line
	2000 5550 2300 5550
Text GLabel 2200 6150 0    60   Input ~ 0
Analog_GND
Wire Wire Line
	2250 6150 2200 6150
Wire Wire Line
	2050 5100 2250 5100
Wire Wire Line
	2250 5100 2250 5150
Text GLabel 1200 5750 0    60   Input ~ 0
Analog_GND
$Comp
L R R32
U 1 1 5B0DC333
P 1250 5950
F 0 "R32" V 1330 5950 50  0000 C CNN
F 1 "0" V 1250 5950 50  0000 C CNN
F 2 "Resistors_SMD:R_0805_HandSoldering" V 1180 5950 50  0001 C CNN
F 3 "" H 1250 5950 50  0001 C CNN
	1    1250 5950
	-1   0    0    1   
$EndComp
Wire Wire Line
	4800 9900 4800 9950
Wire Wire Line
	4800 9950 4650 9950
Wire Wire Line
	4800 10100 4800 10050
Wire Wire Line
	4800 10050 4650 10050
Wire Wire Line
	6400 9200 6400 9100
Wire Wire Line
	6400 9100 6550 9100
Text GLabel 6900 4200 1    60   Input ~ 0
DCDC+
Wire Wire Line
	6900 4200 6900 4250
$Comp
L TE-OJ-SS-112LMH2 K1
U 1 1 5B0DD450
P 14700 3550
F 0 "K1" H 15150 3700 50  0000 L CNN
F 1 "TE-OJ-SS-112LMH2" H 14800 4050 50  0000 L CNN
F 2 "Vikings_Devices:TE-OJ-Series_Miniature-PCB-Relay" H 15970 3520 50  0001 C CNN
F 3 "" H 14700 3550 50  0001 C CNN
	1    14700 3550
	1    0    0    -1  
$EndComp
Wire Wire Line
	14000 4650 14000 4850
Wire Wire Line
	14500 3850 14500 4000
Text GLabel 15250 3900 2    60   Input ~ 0
SC_OUT
Wire Wire Line
	15250 3900 14900 3900
Text GLabel 15300 3200 2    60   Input ~ 0
SC_IN
Wire Wire Line
	15300 3200 15000 3200
Wire Wire Line
	15000 3200 15000 3250
Wire Wire Line
	14500 4400 14500 4850
Wire Wire Line
	14900 3900 14900 3850
$Comp
L D D3
U 1 1 5B0DF215
P 14150 3350
F 0 "D3" H 14150 3450 50  0000 C CNN
F 1 "BAS16LT1" H 14150 3250 50  0000 C CNN
F 2 "Diodes_SMD:D_SOT-23_ANK" H 14150 3350 50  0001 C CNN
F 3 "" H 14150 3350 50  0001 C CNN
	1    14150 3350
	0    1    1    0   
$EndComp
Connection ~ 14500 3900
$Comp
L R R22
U 1 1 5B0DF357
P 13650 4650
F 0 "R22" V 13730 4650 50  0000 C CNN
F 1 "10k" V 13650 4650 50  0000 C CNN
F 2 "Resistors_SMD:R_0805" V 13580 4650 50  0001 C CNN
F 3 "" H 13650 4650 50  0001 C CNN
	1    13650 4650
	-1   0    0    1   
$EndComp
$Comp
L R R21
U 1 1 5B0DF7E9
P 13450 4450
F 0 "R21" V 13530 4450 50  0000 C CNN
F 1 "33" V 13450 4450 50  0000 C CNN
F 2 "Resistors_SMD:R_0805" V 13380 4450 50  0001 C CNN
F 3 "" H 13450 4450 50  0001 C CNN
	1    13450 4450
	0    -1   -1   0   
$EndComp
Wire Wire Line
	13600 4450 13700 4450
$Comp
L R R13
U 1 1 5B0DFC2A
P 13500 3700
F 0 "R13" V 13600 3700 50  0000 C CNN
F 1 "10k" V 13500 3700 50  0000 C CNN
F 2 "Resistors_SMD:R_0805" V 13430 3700 50  0001 C CNN
F 3 "" H 13500 3700 50  0001 C CNN
	1    13500 3700
	1    0    0    -1  
$EndComp
Wire Wire Line
	13500 4200 14200 4200
Wire Wire Line
	14000 4200 14000 4250
Connection ~ 14000 4200
Wire Wire Line
	14500 3250 14500 3150
$Comp
L LTC6994 U7
U 1 1 5B0E2CE7
P 8150 5300
F 0 "U7" H 8250 5600 60  0000 C CNN
F 1 "LTC6994" H 8200 5000 60  0000 C CNN
F 2 "TO_SOT_Packages_SMD:TSOT-23-6" H 8150 5300 60  0001 C CNN
F 3 "" H 8150 5300 60  0001 C CNN
	1    8150 5300
	1    0    0    -1  
$EndComp
$Comp
L C_Small C3
U 1 1 5B0E3824
P 3150 10300
F 0 "C3" H 3160 10370 50  0000 L CNN
F 1 "0,33 µF" H 3160 10220 50  0000 L CNN
F 2 "Capacitors_SMD:C_0805" H 3150 10300 50  0001 C CNN
F 3 "" H 3150 10300 50  0001 C CNN
	1    3150 10300
	-1   0    0    -1  
$EndComp
$Comp
L C_Small C2
U 1 1 5B0E3A75
P 2000 10300
F 0 "C2" H 2010 10370 50  0000 L CNN
F 1 "0,1 µF" H 2010 10220 50  0000 L CNN
F 2 "Capacitors_SMD:C_0805" H 2000 10300 50  0001 C CNN
F 3 "" H 2000 10300 50  0001 C CNN
	1    2000 10300
	-1   0    0    -1  
$EndComp
Wire Wire Line
	3150 10100 3150 10200
Wire Wire Line
	3150 10150 2850 10150
Wire Wire Line
	2000 10150 2000 10200
Wire Wire Line
	3150 10400 3150 10500
Wire Wire Line
	3150 10500 2000 10500
Wire Wire Line
	2550 10450 2550 10550
Connection ~ 2550 10500
Wire Wire Line
	2000 10500 2000 10400
$Comp
L C_Small C1
U 1 1 5B0E48CD
P 8850 5450
F 0 "C1" H 8860 5520 50  0000 L CNN
F 1 "0,1 µF" H 8860 5370 50  0000 L CNN
F 2 "Capacitors_SMD:C_0805" H 8850 5450 50  0001 C CNN
F 3 "" H 8850 5450 50  0001 C CNN
	1    8850 5450
	1    0    0    -1  
$EndComp
Wire Wire Line
	7550 5300 7750 5300
Wire Wire Line
	8600 5300 9250 5300
Wire Wire Line
	8850 5300 8850 5350
Wire Wire Line
	8850 5600 8850 5550
$Comp
L R R29
U 1 1 5B0E511C
P 9250 5500
F 0 "R29" V 9350 5500 50  0000 C CNN
F 1 "1M" V 9250 5500 50  0000 C CNN
F 2 "Resistors_SMD:R_0805_HandSoldering" V 9180 5500 50  0001 C CNN
F 3 "" H 9250 5500 50  0001 C CNN
	1    9250 5500
	1    0    0    -1  
$EndComp
$Comp
L R R34
U 1 1 5B0E55A5
P 9250 5950
F 0 "R34" V 9350 5950 50  0000 C CNN
F 1 "680k" V 9250 5950 50  0000 C CNN
F 2 "Resistors_SMD:R_0805_HandSoldering" V 9180 5950 50  0001 C CNN
F 3 "" H 9250 5950 50  0001 C CNN
	1    9250 5950
	1    0    0    -1  
$EndComp
Wire Wire Line
	8700 5450 8700 5850
Wire Wire Line
	8700 5450 8600 5450
Wire Wire Line
	9250 5650 9250 5800
Connection ~ 9250 5750
Wire Wire Line
	9250 5250 9250 5350
Connection ~ 8850 5300
Wire Wire Line
	9250 6150 9250 6100
$Comp
L R R31
U 1 1 5B0E5AFC
P 7700 5650
F 0 "R31" V 7800 5650 50  0000 C CNN
F 1 "68k" V 7700 5650 50  0000 C CNN
F 2 "Resistors_SMD:R_0805_HandSoldering" V 7630 5650 50  0001 C CNN
F 3 "" H 7700 5650 50  0001 C CNN
	1    7700 5650
	1    0    0    -1  
$EndComp
Wire Wire Line
	7700 5850 7700 5800
Wire Wire Line
	7700 5500 7700 5450
Wire Wire Line
	7700 5450 7750 5450
Wire Wire Line
	7550 5850 7550 5300
$Comp
L +12V #PWR03
U 1 1 5B0E64FE
P 3150 10100
F 0 "#PWR03" H 3150 9950 50  0001 C CNN
F 1 "+12V" H 3150 10240 50  0000 C CNN
F 2 "" H 3150 10100 50  0001 C CNN
F 3 "" H 3150 10100 50  0001 C CNN
	1    3150 10100
	-1   0    0    -1  
$EndComp
Connection ~ 9250 5300
Connection ~ 3150 10150
Text GLabel 2050 9500 0    60   Input ~ 0
DCDC+
Text GLabel 3200 9500 2    60   Input ~ 0
DCDC-
Wire Wire Line
	2200 3300 2200 3250
Text GLabel 1250 3500 2    60   Input ~ 0
DCDC+
Text GLabel 1250 3600 2    60   Input ~ 0
DCDC-
Wire Wire Line
	1700 3800 1750 3800
Connection ~ 1750 3700
Wire Notes Line
	550  2850 4050 2850
Wire Notes Line
	550  4500 4050 4500
Wire Notes Line
	550  4500 550  2850
Text Notes 600  3000 0    60   ~ 0
HV CURRENT SIGNAL\n
$Comp
L GND #PWR04
U 1 1 5B0ECC26
P 1850 4350
F 0 "#PWR04" H 1850 4100 50  0001 C CNN
F 1 "GND" H 1850 4200 50  0000 C CNN
F 2 "" H 1850 4350 50  0001 C CNN
F 3 "" H 1850 4350 50  0001 C CNN
	1    1850 4350
	1    0    0    -1  
$EndComp
$Comp
L GND #PWR05
U 1 1 5B0ED3EB
P 4800 10100
F 0 "#PWR05" H 4800 9850 50  0001 C CNN
F 1 "GND" H 4800 9950 50  0000 C CNN
F 2 "" H 4800 10100 50  0001 C CNN
F 3 "" H 4800 10100 50  0001 C CNN
	1    4800 10100
	1    0    0    -1  
$EndComp
$Comp
L GND #PWR06
U 1 1 5B0ED54D
P 6400 9200
F 0 "#PWR06" H 6400 8950 50  0001 C CNN
F 1 "GND" H 6400 9050 50  0000 C CNN
F 2 "" H 6400 9200 50  0001 C CNN
F 3 "" H 6400 9200 50  0001 C CNN
	1    6400 9200
	1    0    0    -1  
$EndComp
$Comp
L GND #PWR07
U 1 1 5B0EDBF5
P 2550 10550
F 0 "#PWR07" H 2550 10300 50  0001 C CNN
F 1 "GND" H 2550 10400 50  0000 C CNN
F 2 "" H 2550 10550 50  0001 C CNN
F 3 "" H 2550 10550 50  0001 C CNN
	1    2550 10550
	-1   0    0    -1  
$EndComp
Wire Notes Line
	550  4600 4050 4600
Wire Notes Line
	550  6450 4050 6450
Wire Notes Line
	550  6450 550  4600
Text Notes 650  4750 0    60   ~ 0
BRAKE PRESSURE SIGNAL\n
Wire Wire Line
	1250 5800 1250 5750
Wire Wire Line
	1250 5750 1200 5750
Wire Wire Line
	1250 6100 1250 6200
Wire Wire Line
	5550 5650 5550 4900
Wire Wire Line
	6200 4450 6250 4450
$Comp
L GND #PWR08
U 1 1 5B0EF92C
P 7300 6100
F 0 "#PWR08" H 7300 5850 50  0001 C CNN
F 1 "GND" H 7300 5950 50  0000 C CNN
F 2 "" H 7300 6100 50  0001 C CNN
F 3 "" H 7300 6100 50  0001 C CNN
	1    7300 6100
	1    0    0    -1  
$EndComp
$Comp
L GND #PWR09
U 1 1 5B0EFA67
P 7550 5850
F 0 "#PWR09" H 7550 5600 50  0001 C CNN
F 1 "GND" H 7550 5700 50  0000 C CNN
F 2 "" H 7550 5850 50  0001 C CNN
F 3 "" H 7550 5850 50  0001 C CNN
	1    7550 5850
	1    0    0    -1  
$EndComp
Wire Wire Line
	7300 5700 7300 6100
$Comp
L GND #PWR010
U 1 1 5B0F0798
P 1250 6200
F 0 "#PWR010" H 1250 5950 50  0001 C CNN
F 1 "GND" H 1250 6050 50  0000 C CNN
F 2 "" H 1250 6200 50  0001 C CNN
F 3 "" H 1250 6200 50  0001 C CNN
	1    1250 6200
	1    0    0    -1  
$EndComp
$Comp
L GND #PWR011
U 1 1 5B0F0CC7
P 7700 6200
F 0 "#PWR011" H 7700 5950 50  0001 C CNN
F 1 "GND" H 7700 6050 50  0000 C CNN
F 2 "" H 7700 6200 50  0001 C CNN
F 3 "" H 7700 6200 50  0001 C CNN
	1    7700 6200
	1    0    0    -1  
$EndComp
$Comp
L GND #PWR012
U 1 1 5B0F0D44
P 8850 5600
F 0 "#PWR012" H 8850 5350 50  0001 C CNN
F 1 "GND" H 8850 5450 50  0000 C CNN
F 2 "" H 8850 5600 50  0001 C CNN
F 3 "" H 8850 5600 50  0001 C CNN
	1    8850 5600
	1    0    0    -1  
$EndComp
Wire Wire Line
	8700 5850 9100 5850
Wire Wire Line
	9100 5850 9100 5750
Wire Wire Line
	9100 5750 9250 5750
$Comp
L GND #PWR013
U 1 1 5B0F0EB3
P 9250 6150
F 0 "#PWR013" H 9250 5900 50  0001 C CNN
F 1 "GND" H 9250 6000 50  0000 C CNN
F 2 "" H 9250 6150 50  0001 C CNN
F 3 "" H 9250 6150 50  0001 C CNN
	1    9250 6150
	1    0    0    -1  
$EndComp
$Comp
L +5V #PWR014
U 1 1 5B0F238D
P 1750 10100
F 0 "#PWR014" H 1750 9950 50  0001 C CNN
F 1 "+5V" H 1750 10240 50  0000 C CNN
F 2 "" H 1750 10100 50  0001 C CNN
F 3 "" H 1750 10100 50  0001 C CNN
	1    1750 10100
	1    0    0    -1  
$EndComp
Wire Wire Line
	1750 10100 1750 10150
Wire Wire Line
	1750 10150 2250 10150
Connection ~ 2000 10150
$Comp
L +5V #PWR015
U 1 1 5B0F2618
P 9250 5250
F 0 "#PWR015" H 9250 5100 50  0001 C CNN
F 1 "+5V" H 9250 5390 50  0000 C CNN
F 2 "" H 9250 5250 50  0001 C CNN
F 3 "" H 9250 5250 50  0001 C CNN
	1    9250 5250
	1    0    0    -1  
$EndComp
$Comp
L GND #PWR016
U 1 1 5B0F2EED
P 11700 4900
F 0 "#PWR016" H 11700 4650 50  0001 C CNN
F 1 "GND" H 11700 4750 50  0000 C CNN
F 2 "" H 11700 4900 50  0001 C CNN
F 3 "" H 11700 4900 50  0001 C CNN
	1    11700 4900
	1    0    0    -1  
$EndComp
Wire Wire Line
	11700 4900 11700 4850
Wire Wire Line
	8600 5150 8900 5150
$Comp
L GND #PWR017
U 1 1 5B0F3966
P 13650 4850
F 0 "#PWR017" H 13650 4600 50  0001 C CNN
F 1 "GND" H 13650 4700 50  0000 C CNN
F 2 "" H 13650 4850 50  0001 C CNN
F 3 "" H 13650 4850 50  0001 C CNN
	1    13650 4850
	1    0    0    -1  
$EndComp
$Comp
L GND #PWR018
U 1 1 5B0F3FE9
P 14000 4850
F 0 "#PWR018" H 14000 4600 50  0001 C CNN
F 1 "GND" H 14000 4700 50  0000 C CNN
F 2 "" H 14000 4850 50  0001 C CNN
F 3 "" H 14000 4850 50  0001 C CNN
	1    14000 4850
	1    0    0    -1  
$EndComp
$Comp
L GND #PWR019
U 1 1 5B0F4066
P 14500 4850
F 0 "#PWR019" H 14500 4600 50  0001 C CNN
F 1 "GND" H 14500 4700 50  0000 C CNN
F 2 "" H 14500 4850 50  0001 C CNN
F 3 "" H 14500 4850 50  0001 C CNN
	1    14500 4850
	1    0    0    -1  
$EndComp
Wire Wire Line
	13650 4850 13650 4800
Wire Wire Line
	13650 4500 13650 4450
Connection ~ 13650 4450
Wire Wire Line
	13050 4450 13300 4450
Wire Notes Line
	7450 6350 12750 6350
Wire Notes Line
	7450 3450 7450 6350
Text Notes 7550 4100 0    60   ~ 0
500 ms DELAY BLOCK\nWITH LATCH
Wire Notes Line
	13300 2400 13300 5300
Wire Notes Line
	13300 2400 15800 2400
Wire Notes Line
	15800 2400 15800 5300
Wire Notes Line
	15800 5300 13300 5300
$Comp
L CD4043B U6
U 3 1 5B0F5D71
P 9750 8000
F 0 "U6" H 9500 8200 60  0000 C CNN
F 1 "CD4043B" H 9900 7800 60  0000 C CNN
F 2 "Housings_SOIC:SOIC-16_3.9x9.9mm_Pitch1.27mm" H 10150 7900 60  0001 C CNN
F 3 "" H 10150 7900 60  0001 C CNN
	3    9750 8000
	1    0    0    -1  
$EndComp
$Comp
L CD4043B U6
U 4 1 5B0F5DF2
P 9750 8500
F 0 "U6" H 9500 8700 60  0000 C CNN
F 1 "CD4043B" H 9900 8300 60  0000 C CNN
F 2 "Housings_SOIC:SOIC-16_3.9x9.9mm_Pitch1.27mm" H 10150 8400 60  0001 C CNN
F 3 "" H 10150 8400 60  0001 C CNN
	4    9750 8500
	1    0    0    -1  
$EndComp
$Comp
L CD4043B U6
U 5 1 5B0F5E71
P 9750 8950
F 0 "U6" H 9500 9150 60  0000 C CNN
F 1 "CD4043B" H 9900 8750 60  0000 C CNN
F 2 "Housings_SOIC:SOIC-16_3.9x9.9mm_Pitch1.27mm" H 10150 8850 60  0001 C CNN
F 3 "" H 10150 8850 60  0001 C CNN
	5    9750 8950
	1    0    0    -1  
$EndComp
NoConn ~ 10300 7450
NoConn ~ 10300 7950
NoConn ~ 10300 8450
$Comp
L R R26
U 1 1 5B0F6978
P 7100 5150
F 0 "R26" V 7180 5150 50  0000 C CNN
F 1 "220k" V 7100 5150 50  0000 C CNN
F 2 "Resistors_SMD:R_0805_HandSoldering" V 7030 5150 50  0001 C CNN
F 3 "" H 7100 5150 50  0001 C CNN
	1    7100 5150
	0    1    1    0   
$EndComp
Text GLabel 10300 8850 2    60   Input ~ 0
DCDC+
$Comp
L GND #PWR020
U 1 1 5B0F7805
P 10350 9100
F 0 "#PWR020" H 10350 8850 50  0001 C CNN
F 1 "GND" H 10350 8950 50  0000 C CNN
F 2 "" H 10350 9100 50  0001 C CNN
F 3 "" H 10350 9100 50  0001 C CNN
	1    10350 9100
	1    0    0    -1  
$EndComp
Wire Wire Line
	10350 9100 10350 9050
Wire Wire Line
	10350 9050 10300 9050
$Comp
L R R37
U 1 1 5B0F79F8
P 9000 9050
F 0 "R37" V 9080 9050 50  0000 C CNN
F 1 "10k" V 9000 9050 50  0000 C CNN
F 2 "Resistors_SMD:R_0805_HandSoldering" V 8930 9050 50  0001 C CNN
F 3 "" H 9000 9050 50  0001 C CNN
	1    9000 9050
	0    1    1    0   
$EndComp
Text GLabel 8800 9050 0    60   Input ~ 0
DCDC+
Wire Wire Line
	8800 9050 8850 9050
Wire Wire Line
	9150 9050 9200 9050
Wire Wire Line
	8800 7550 9200 7550
Wire Wire Line
	8800 7450 8800 8600
Wire Wire Line
	8800 8550 9200 8550
Wire Wire Line
	8800 8050 9200 8050
Connection ~ 8800 8050
$Comp
L GND #PWR021
U 1 1 5B0F8B1F
P 8800 8600
F 0 "#PWR021" H 8800 8350 50  0001 C CNN
F 1 "GND" H 8800 8450 50  0000 C CNN
F 2 "" H 8800 8600 50  0001 C CNN
F 3 "" H 8800 8600 50  0001 C CNN
	1    8800 8600
	1    0    0    -1  
$EndComp
Connection ~ 8800 8550
Text Notes 13500 2550 0    60   ~ 0
SAFETY SYSTEM\n
Text GLabel 2550 4350 2    60   Input ~ 0
DCDC-
Wire Wire Line
	2500 4350 2550 4350
$Comp
L CD4043B U6
U 2 1 5B0F5B4A
P 9750 7500
F 0 "U6" H 9500 7700 60  0000 C CNN
F 1 "CD4043B" H 9900 7300 60  0000 C CNN
F 2 "Housings_SOIC:SOIC-16_3.9x9.9mm_Pitch1.27mm" H 10150 7400 60  0001 C CNN
F 3 "" H 10150 7400 60  0001 C CNN
	2    9750 7500
	1    0    0    -1  
$EndComp
Wire Wire Line
	9200 8450 8800 8450
Connection ~ 8800 8450
Wire Wire Line
	9200 7950 8800 7950
Connection ~ 8800 7950
Wire Wire Line
	8800 7450 9200 7450
Connection ~ 8800 7550
$Comp
L LED D5
U 1 1 5B0FCBA6
P 5950 4350
F 0 "D5" H 5950 4450 50  0000 C CNN
F 1 "LED" H 5950 4250 50  0000 C CNN
F 2 "Diodes_SMD:D_0805" H 5950 4350 50  0001 C CNN
F 3 "" H 5950 4350 50  0001 C CNN
	1    5950 4350
	0    -1   -1   0   
$EndComp
$Comp
L LED D2
U 1 1 5B0FCCCE
P 13800 3350
F 0 "D2" H 13800 3450 50  0000 C CNN
F 1 "LED" H 13800 3250 50  0000 C CNN
F 2 "Diodes_SMD:D_0805" H 13800 3350 50  0001 C CNN
F 3 "" H 13800 3350 50  0001 C CNN
	1    13800 3350
	0    -1   -1   0   
$EndComp
Text GLabel 2550 6200 2    60   Input ~ 0
DCDC-
Wire Wire Line
	2500 6200 2550 6200
Text GLabel 2150 3250 0    60   Input ~ 0
DCDC+
Text GLabel 2150 1800 2    60   Input ~ 0
DCDC-
Wire Wire Line
	2150 1800 2050 1800
Wire Wire Line
	2050 1800 2050 1750
Wire Wire Line
	2150 1100 2050 1100
Wire Wire Line
	2050 1100 2050 1150
Text GLabel 1700 3900 3    60   Input ~ 0
CurrS_Out
Connection ~ 1750 3800
Text GLabel 950  1200 1    60   Input ~ 0
CurrS_Out
$Comp
L R R4
U 1 1 5B0F0625
P 2200 900
F 0 "R4" V 2280 900 50  0000 C CNN
F 1 "10k" V 2200 900 50  0000 C CNN
F 2 "Resistors_SMD:R_0805_HandSoldering" V 2130 900 50  0001 C CNN
F 3 "" H 2200 900 50  0001 C CNN
	1    2200 900 
	0    1    1    0   
$EndComp
Wire Wire Line
	2450 1450 2650 1450
Wire Wire Line
	2600 1450 2600 900 
Wire Wire Line
	2600 900  2350 900 
$Comp
L R R6
U 1 1 5B0F097D
P 1500 1250
F 0 "R6" V 1600 1250 50  0000 C CNN
F 1 "2,2k" V 1500 1250 50  0000 C CNN
F 2 "Resistors_SMD:R_0805_HandSoldering" V 1430 1250 50  0001 C CNN
F 3 "" H 1500 1250 50  0001 C CNN
	1    1500 1250
	0    1    1    0   
$EndComp
Wire Wire Line
	2050 900  1700 900 
Wire Wire Line
	1700 900  1700 1550
$Comp
L R R10
U 1 1 5B0F13ED
P 1500 1550
F 0 "R10" V 1580 1550 50  0000 C CNN
F 1 "15k" V 1500 1550 50  0000 C CNN
F 2 "Resistors_SMD:R_0805_HandSoldering" V 1430 1550 50  0001 C CNN
F 3 "" H 1500 1550 50  0001 C CNN
	1    1500 1550
	0    1    1    0   
$EndComp
Wire Wire Line
	1650 1550 1850 1550
$Comp
L GND #PWR022
U 1 1 5B0F1A53
P 1800 1800
F 0 "#PWR022" H 1800 1550 50  0001 C CNN
F 1 "GND" H 1800 1650 50  0000 C CNN
F 2 "" H 1800 1800 50  0001 C CNN
F 3 "" H 1800 1800 50  0001 C CNN
	1    1800 1800
	1    0    0    -1  
$EndComp
Wire Wire Line
	1800 1350 1850 1350
Wire Wire Line
	1800 1350 1800 1800
Wire Wire Line
	1650 1250 1700 1250
Connection ~ 1700 1250
Connection ~ 1700 1550
Text GLabel 800  1400 1    60   Input ~ 0
DCDC+
$Comp
L R R8
U 1 1 5B0F31A8
P 2800 1450
F 0 "R8" V 2880 1450 50  0000 C CNN
F 1 "10k" V 2800 1450 50  0000 C CNN
F 2 "Resistors_SMD:R_0805_HandSoldering" V 2730 1450 50  0001 C CNN
F 3 "" H 2800 1450 50  0001 C CNN
	1    2800 1450
	0    1    1    0   
$EndComp
Connection ~ 2600 1450
Wire Wire Line
	2950 1450 3100 1450
$Comp
L GND #PWR023
U 1 1 5B0F3892
P 3050 1800
F 0 "#PWR023" H 3050 1550 50  0001 C CNN
F 1 "GND" H 3050 1650 50  0000 C CNN
F 2 "" H 3050 1800 50  0001 C CNN
F 3 "" H 3050 1800 50  0001 C CNN
	1    3050 1800
	1    0    0    -1  
$EndComp
Text GLabel 3350 1000 2    60   Input ~ 0
DCDC+
Text GLabel 3350 1700 2    60   Input ~ 0
DCDC-
Wire Wire Line
	3350 1700 3300 1700
Wire Wire Line
	3300 1700 3300 1650
Wire Wire Line
	3300 1050 3300 1000
Wire Wire Line
	3050 1250 3050 1800
Wire Wire Line
	3050 1250 3100 1250
Wire Wire Line
	3000 1450 3000 800 
Connection ~ 3000 1450
$Comp
L GND #PWR024
U 1 1 5B0F5ACC
P 4650 1800
F 0 "#PWR024" H 4650 1550 50  0001 C CNN
F 1 "GND" H 4650 1650 50  0000 C CNN
F 2 "" H 4650 1800 50  0001 C CNN
F 3 "" H 4650 1800 50  0001 C CNN
	1    4650 1800
	1    0    0    -1  
$EndComp
Wire Wire Line
	4650 1800 4650 1750
Wire Wire Line
	4450 1550 4400 1550
Wire Wire Line
	5050 1450 5150 1450
Wire Wire Line
	5100 1450 5100 2000
Text GLabel 5150 1450 2    60   Input ~ 0
Analog_HV_current
Text Notes 650  600  0    60   ~ 0
Analog HV current measurement to X90
$Comp
L +12V #PWR025
U 1 1 5B0F9C68
P 13500 3150
F 0 "#PWR025" H 13500 3000 50  0001 C CNN
F 1 "+12V" H 13500 3290 50  0000 C CNN
F 2 "" H 13500 3150 50  0001 C CNN
F 3 "" H 13500 3150 50  0001 C CNN
	1    13500 3150
	-1   0    0    -1  
$EndComp
$Comp
L +12V #PWR026
U 1 1 5B0F9F3E
P 14150 3150
F 0 "#PWR026" H 14150 3000 50  0001 C CNN
F 1 "+12V" H 14150 3290 50  0000 C CNN
F 2 "" H 14150 3150 50  0001 C CNN
F 3 "" H 14150 3150 50  0001 C CNN
	1    14150 3150
	-1   0    0    -1  
$EndComp
$Comp
L +12V #PWR027
U 1 1 5B0F9FEE
P 14500 3150
F 0 "#PWR027" H 14500 3000 50  0001 C CNN
F 1 "+12V" H 14500 3290 50  0000 C CNN
F 2 "" H 14500 3150 50  0001 C CNN
F 3 "" H 14500 3150 50  0001 C CNN
	1    14500 3150
	-1   0    0    -1  
$EndComp
$Comp
L +12V #PWR028
U 1 1 5B0FA5C1
P 13800 3150
F 0 "#PWR028" H 13800 3000 50  0001 C CNN
F 1 "+12V" H 13800 3290 50  0000 C CNN
F 2 "" H 13800 3150 50  0001 C CNN
F 3 "" H 13800 3150 50  0001 C CNN
	1    13800 3150
	-1   0    0    -1  
$EndComp
$Comp
L R R14
U 1 1 5B0FA763
P 13800 3700
F 0 "R14" V 13880 3700 50  0000 C CNN
F 1 "10k" V 13800 3700 50  0000 C CNN
F 2 "Resistors_SMD:R_0805_HandSoldering" V 13730 3700 50  0001 C CNN
F 3 "" H 13800 3700 50  0001 C CNN
	1    13800 3700
	1    0    0    -1  
$EndComp
Wire Wire Line
	13500 3850 13500 4200
Wire Wire Line
	13800 3900 14500 3900
Wire Wire Line
	13800 3850 13800 3900
Wire Wire Line
	14150 3500 14150 3900
Connection ~ 14150 3900
Wire Wire Line
	13800 3500 13800 3550
Wire Wire Line
	13800 3150 13800 3200
Wire Wire Line
	14150 3150 14150 3200
Wire Wire Line
	13500 3550 13500 3150
Wire Wire Line
	7250 5150 7750 5150
Wire Wire Line
	6900 5150 6950 5150
Wire Wire Line
	7300 5150 7300 5400
Connection ~ 7300 5150
$Comp
L GND #PWR029
U 1 1 5B100BE8
P 5950 4550
F 0 "#PWR029" H 5950 4300 50  0001 C CNN
F 1 "GND" H 5950 4400 50  0000 C CNN
F 2 "" H 5950 4550 50  0001 C CNN
F 3 "" H 5950 4550 50  0001 C CNN
	1    5950 4550
	1    0    0    -1  
$EndComp
Wire Wire Line
	3300 1000 3350 1000
$Comp
L R R17
U 1 1 5B10902D
P 5950 4000
F 0 "R17" V 6030 4000 50  0000 C CNN
F 1 "15k" V 5950 4000 50  0000 C CNN
F 2 "Resistors_SMD:R_0805_HandSoldering" V 5880 4000 50  0001 C CNN
F 3 "" H 5950 4000 50  0001 C CNN
	1    5950 4000
	-1   0    0    1   
$EndComp
Wire Wire Line
	4000 5650 5550 5650
Wire Wire Line
	6900 5100 6900 5350
Wire Wire Line
	5950 4550 5950 4500
Wire Wire Line
	5950 4200 5950 4150
Wire Wire Line
	5950 3850 5950 3800
Wire Wire Line
	5950 3800 6200 3800
Connection ~ 6200 3800
$Comp
L LED D6
U 1 1 5B10CF0A
P 5950 5450
F 0 "D6" H 5950 5550 50  0000 C CNN
F 1 "LED" H 5950 5350 50  0000 C CNN
F 2 "Diodes_SMD:D_0805" H 5950 5450 50  0001 C CNN
F 3 "" H 5950 5450 50  0001 C CNN
	1    5950 5450
	0    -1   -1   0   
$EndComp
$Comp
L GND #PWR030
U 1 1 5B10CF10
P 5950 5650
F 0 "#PWR030" H 5950 5400 50  0001 C CNN
F 1 "GND" H 5950 5500 50  0000 C CNN
F 2 "" H 5950 5650 50  0001 C CNN
F 3 "" H 5950 5650 50  0001 C CNN
	1    5950 5650
	1    0    0    -1  
$EndComp
$Comp
L R R25
U 1 1 5B10CF16
P 5950 5100
F 0 "R25" V 6030 5100 50  0000 C CNN
F 1 "15k" V 5950 5100 50  0000 C CNN
F 2 "Resistors_SMD:R_0805_HandSoldering" V 5880 5100 50  0001 C CNN
F 3 "" H 5950 5100 50  0001 C CNN
	1    5950 5100
	-1   0    0    1   
$EndComp
Wire Wire Line
	5950 5650 5950 5600
Wire Wire Line
	5950 5300 5950 5250
Wire Wire Line
	5950 4950 5950 4900
Connection ~ 5950 4900
Wire Wire Line
	4400 1550 4400 2000
Wire Wire Line
	4400 2000 5100 2000
$Comp
L GND #PWR031
U 1 1 5B10DDFE
P 4250 1800
F 0 "#PWR031" H 4250 1550 50  0001 C CNN
F 1 "GND" H 4250 1650 50  0000 C CNN
F 2 "" H 4250 1800 50  0001 C CNN
F 3 "" H 4250 1800 50  0001 C CNN
	1    4250 1800
	1    0    0    -1  
$EndComp
$Comp
L TL072 U1
U 2 1 5B110AF0
P 2150 1450
F 0 "U1" H 2150 1650 50  0000 L CNN
F 1 "TL072" H 2150 1250 50  0000 L CNN
F 2 "Housings_SOIC:SOIC-8_3.9x4.9mm_Pitch1.27mm" H 2150 1450 50  0001 C CNN
F 3 "" H 2150 1450 50  0001 C CNN
	2    2150 1450
	1    0    0    -1  
$EndComp
$Comp
L TL072 U1
U 1 1 5B110CFA
P 3400 1350
F 0 "U1" H 3400 1550 50  0000 L CNN
F 1 "TL072" H 3400 1150 50  0000 L CNN
F 2 "Housings_SOIC:SOIC-8_3.9x4.9mm_Pitch1.27mm" H 3400 1350 50  0001 C CNN
F 3 "" H 3400 1350 50  0001 C CNN
	1    3400 1350
	1    0    0    -1  
$EndComp
Text GLabel 4850 3150 1    60   Input ~ 0
DCDC+
$Comp
L GND #PWR032
U 1 1 5B115208
P 1300 3850
F 0 "#PWR032" H 1300 3600 50  0001 C CNN
F 1 "GND" H 1300 3700 50  0000 C CNN
F 2 "" H 1300 3850 50  0001 C CNN
F 3 "" H 1300 3850 50  0001 C CNN
	1    1300 3850
	1    0    0    -1  
$EndComp
$Comp
L GND #PWR033
U 1 1 5B1157D4
P 3250 8650
F 0 "#PWR033" H 3250 8400 50  0001 C CNN
F 1 "GND" H 3250 8500 50  0000 C CNN
F 2 "" H 3250 8650 50  0001 C CNN
F 3 "" H 3250 8650 50  0001 C CNN
	1    3250 8650
	1    0    0    -1  
$EndComp
$Comp
L TL072 U2
U 1 1 5B126062
P 4750 1450
F 0 "U2" H 4750 1650 50  0000 L CNN
F 1 "TL072" H 4750 1250 50  0000 L CNN
F 2 "Housings_SOIC:SOIC-8_3.9x4.9mm_Pitch1.27mm" H 4750 1450 50  0001 C CNN
F 3 "" H 4750 1450 50  0001 C CNN
	1    4750 1450
	1    0    0    -1  
$EndComp
Text GLabel 4700 1050 2    60   Input ~ 0
DCDC+
Wire Wire Line
	4700 1050 4650 1050
Wire Wire Line
	4650 1050 4650 1150
Wire Wire Line
	3800 800  3800 1350
Connection ~ 3800 1350
Connection ~ 5100 1450
Wire Notes Line
	600  500  6200 500 
Wire Notes Line
	600  2050 6200 2050
Wire Notes Line
	600  2050 600  500 
$Comp
L D_Zener D1
U 1 1 5B132D01
P 4250 1600
F 0 "D1" H 4250 1700 50  0000 C CNN
F 1 "10V" H 4250 1500 50  0000 C CNN
F 2 "Diodes_SMD:D_SMA" H 4250 1600 50  0001 C CNN
F 3 "" H 4250 1600 50  0001 C CNN
	1    4250 1600
	0    1    1    0   
$EndComp
Wire Wire Line
	2150 3250 3050 3250
$Comp
L R R7
U 1 1 5B1047FD
P 4000 1350
F 0 "R7" V 4080 1350 50  0000 C CNN
F 1 "10k" V 4000 1350 50  0000 C CNN
F 2 "Resistors_SMD:R_0805_HandSoldering" V 3930 1350 50  0001 C CNN
F 3 "" H 4000 1350 50  0001 C CNN
	1    4000 1350
	0    -1   -1   0   
$EndComp
Wire Wire Line
	4250 1800 4250 1750
Wire Wire Line
	4250 1450 4250 1350
Wire Wire Line
	4150 1350 4450 1350
Connection ~ 4250 1350
Wire Wire Line
	3850 1350 3700 1350
Wire Notes Line
	6200 2050 6200 500 
$Comp
L GND #PWR034
U 1 1 5B10D108
P 3450 4300
F 0 "#PWR034" H 3450 4050 50  0001 C CNN
F 1 "GND" H 3450 4150 50  0000 C CNN
F 2 "" H 3450 4300 50  0001 C CNN
F 3 "" H 3450 4300 50  0001 C CNN
	1    3450 4300
	1    0    0    -1  
$EndComp
$Comp
L GND #PWR035
U 1 1 5B10DA92
P 3550 6200
F 0 "#PWR035" H 3550 5950 50  0001 C CNN
F 1 "GND" H 3550 6050 50  0000 C CNN
F 2 "" H 3550 6200 50  0001 C CNN
F 3 "" H 3550 6200 50  0001 C CNN
	1    3550 6200
	1    0    0    -1  
$EndComp
Wire Wire Line
	3550 6050 3550 6200
Wire Wire Line
	2900 5650 3100 5650
Wire Notes Line
	4050 4500 4050 2850
Wire Notes Line
	4050 6450 4050 4600
Text GLabel 5450 4550 3    60   Input ~ 0
BSPD_STATUS
$Comp
L R R11
U 1 1 5B114DD5
P 4150 4650
F 0 "R11" V 4230 4650 50  0000 C CNN
F 1 "10k" V 4150 4650 50  0000 C CNN
F 2 "Resistors_SMD:R_0805" V 4080 4650 50  0001 C CNN
F 3 "" H 4150 4650 50  0001 C CNN
	1    4150 4650
	-1   0    0    1   
$EndComp
$Comp
L MMBT3904 Q2
U 1 1 5B152699
P 6800 4450
F 0 "Q2" H 7000 4525 50  0000 L CNN
F 1 "MMBT3904" H 7000 4450 50  0000 L CNN
F 2 "TO_SOT_Packages_SMD:SOT-23" H 7000 4375 50  0001 L CIN
F 3 "" H 6800 4450 50  0001 L CNN
	1    6800 4450
	1    0    0    -1  
$EndComp
$Comp
L MMBT3904 Q4
U 1 1 5B1528FB
P 6800 4900
F 0 "Q4" H 7000 4975 50  0000 L CNN
F 1 "MMBT3904" H 7000 4900 50  0000 L CNN
F 2 "TO_SOT_Packages_SMD:SOT-23" H 7000 4825 50  0001 L CIN
F 3 "" H 6800 4900 50  0001 L CNN
	1    6800 4900
	1    0    0    -1  
$EndComp
$Comp
L R R36
U 1 1 5B1E8FE1
P 7700 6000
F 0 "R36" V 7800 6000 50  0000 C CNN
F 1 "33k" V 7700 6000 50  0000 C CNN
F 2 "Resistors_SMD:R_0805_HandSoldering" V 7630 6000 50  0001 C CNN
F 3 "" H 7700 6000 50  0001 C CNN
	1    7700 6000
	1    0    0    -1  
$EndComp
Wire Wire Line
	7700 6200 7700 6150
$Comp
L R R2
U 1 1 5B1EC4B1
P 2200 800
F 0 "R2" V 2100 800 50  0000 C CNN
F 1 "10k" V 2200 800 50  0000 C CNN
F 2 "Resistors_SMD:R_0805_HandSoldering" V 2130 800 50  0001 C CNN
F 3 "" H 2200 800 50  0001 C CNN
	1    2200 800 
	0    1    1    0   
$EndComp
Wire Wire Line
	2000 900  2000 800 
Wire Wire Line
	2000 800  2050 800 
Connection ~ 2000 900 
Wire Wire Line
	2350 800  2400 800 
Wire Wire Line
	2400 800  2400 900 
Connection ~ 2400 900 
$Comp
L R R5
U 1 1 5B1ED0DD
P 1150 1250
F 0 "R5" V 1250 1250 50  0000 C CNN
F 1 "22k" V 1150 1250 50  0000 C CNN
F 2 "Resistors_SMD:R_0805_HandSoldering" V 1080 1250 50  0001 C CNN
F 3 "" H 1150 1250 50  0001 C CNN
	1    1150 1250
	0    1    1    0   
$EndComp
Wire Wire Line
	950  1200 950  1250
Wire Wire Line
	950  1250 1000 1250
Wire Wire Line
	1300 1250 1350 1250
$Comp
L R R9
U 1 1 5B1EDA4F
P 1150 1550
F 0 "R9" V 1230 1550 50  0000 C CNN
F 1 "15k" V 1150 1550 50  0000 C CNN
F 2 "Resistors_SMD:R_0805_HandSoldering" V 1080 1550 50  0001 C CNN
F 3 "" H 1150 1550 50  0001 C CNN
	1    1150 1550
	0    1    1    0   
$EndComp
Wire Wire Line
	1300 1550 1350 1550
Wire Wire Line
	1000 1550 800  1550
Wire Wire Line
	800  1550 800  1400
Text Notes 1900 850  0    60   ~ 0
5k
Text Notes 1100 1100 0    60   ~ 0
24k
Text Notes 1300 1500 0    60   ~ 0
30k
$Comp
L R R1
U 1 1 5B1EECCB
P 3450 700
F 0 "R1" V 3350 700 50  0000 C CNN
F 1 "220k" V 3450 700 50  0000 C CNN
F 2 "Resistors_SMD:R_0805_HandSoldering" V 3380 700 50  0001 C CNN
F 3 "" H 3450 700 50  0001 C CNN
	1    3450 700 
	0    1    1    0   
$EndComp
Wire Wire Line
	3600 800  3800 800 
Wire Wire Line
	3000 800  3300 800 
Text Notes 3150 650  0    60   ~ 0
20k
Wire Wire Line
	1700 3900 1700 3850
Wire Wire Line
	1700 3850 1750 3850
Wire Wire Line
	1750 3850 1750 3700
Wire Wire Line
	2200 3900 2200 3600
$Comp
L R R19
U 1 1 5B1F102D
P 1850 4150
F 0 "R19" V 1930 4150 50  0000 C CNN
F 1 "220" V 1850 4150 50  0000 C CNN
F 2 "Resistors_SMD:R_0805_HandSoldering" V 1780 4150 50  0001 C CNN
F 3 "" H 1850 4150 50  0001 C CNN
	1    1850 4150
	1    0    0    -1  
$EndComp
Wire Wire Line
	1850 4350 1850 4300
Wire Wire Line
	1850 4000 1850 3950
Wire Wire Line
	1800 3950 2100 3950
Wire Wire Line
	1800 3850 1800 3950
Text Notes 2150 4050 0    60   ~ 0
2,4k
$Comp
L R R28
U 1 1 5B1F282F
P 7100 5350
F 0 "R28" V 7180 5350 50  0000 C CNN
F 1 "22k" V 7100 5350 50  0000 C CNN
F 2 "Resistors_SMD:R_0805_HandSoldering" V 7030 5350 50  0001 C CNN
F 3 "" H 7100 5350 50  0001 C CNN
	1    7100 5350
	0    1    1    0   
$EndComp
Wire Wire Line
	6900 5350 6950 5350
Connection ~ 6900 5150
Wire Wire Line
	7250 5350 7300 5350
Connection ~ 7300 5350
Text Notes 6800 5300 0    60   ~ 0
20k
$Comp
L R R3
U 1 1 5B0F4623
P 3450 800
F 0 "R3" V 3530 800 50  0000 C CNN
F 1 "22k" V 3450 800 50  0000 C CNN
F 2 "Resistors_SMD:R_0805_HandSoldering" V 3380 800 50  0001 C CNN
F 3 "" H 3450 800 50  0001 C CNN
	1    3450 800 
	0    1    1    0   
$EndComp
Wire Wire Line
	3650 800  3650 700 
Wire Wire Line
	3650 700  3600 700 
Connection ~ 3650 800 
Wire Wire Line
	3300 700  3250 700 
Wire Wire Line
	3250 700  3250 800 
Connection ~ 3250 800 
Text Notes 7750 5900 0    60   ~ 0
95k
$Comp
L L78L05_SO8 U10
U 1 1 5B2001AC
P 2550 10150
F 0 "U10" H 2400 10275 50  0000 C CNN
F 1 "L78L05_SO8" H 2550 10275 50  0000 L CNN
F 2 "Housings_SOIC:SOIC-8_3.9x4.9mm_Pitch1.27mm" H 2650 10350 50  0001 C CIN
F 3 "" H 2750 10150 50  0001 C CNN
	1    2550 10150
	-1   0    0    -1  
$EndComp
$Comp
L R R35
U 1 1 5B368B37
P 3050 3450
F 0 "R35" V 3130 3450 50  0000 C CNN
F 1 "10k" V 3050 3450 50  0000 C CNN
F 2 "Resistors_SMD:R_0805_HandSoldering" V 2980 3450 50  0001 C CNN
F 3 "" H 3050 3450 50  0001 C CNN
	1    3050 3450
	1    0    0    -1  
$EndComp
Wire Wire Line
	3050 3250 3050 3300
Connection ~ 2500 3250
Wire Wire Line
	3050 3800 3050 3600
$Comp
L D D7
U 1 1 5B369A58
P 3450 4050
F 0 "D7" H 3450 4150 50  0000 C CNN
F 1 "BAS16LT1" H 3450 3950 50  0000 C CNN
F 2 "Diodes_SMD:D_SOT-23_ANK" H 3450 4050 50  0001 C CNN
F 3 "" H 3450 4050 50  0001 C CNN
	1    3450 4050
	0    1    1    0   
$EndComp
$Comp
L D D4
U 1 1 5B36A025
P 3800 3800
F 0 "D4" H 3800 3900 50  0000 C CNN
F 1 "BAS16LT1" H 3800 3700 50  0000 C CNN
F 2 "Diodes_SMD:D_SOT-23_ANK" H 3800 3800 50  0001 C CNN
F 3 "" H 3800 3800 50  0001 C CNN
	1    3800 3800
	-1   0    0    1   
$EndComp
$Comp
L R R38
U 1 1 5B36A24B
P 3250 3800
F 0 "R38" V 3350 3800 50  0000 C CNN
F 1 "10k" V 3250 3800 50  0000 C CNN
F 2 "Resistors_SMD:R_0805_HandSoldering" V 3180 3800 50  0001 C CNN
F 3 "" H 3250 3800 50  0001 C CNN
	1    3250 3800
	0    1    1    0   
$EndComp
Wire Wire Line
	3450 4300 3450 4200
Connection ~ 3050 3800
Wire Wire Line
	2900 3800 3100 3800
Wire Wire Line
	3400 3800 3650 3800
Wire Wire Line
	3450 3800 3450 3900
Connection ~ 3450 3800
$Comp
L R R44
U 1 1 5B36CC07
P 3050 5450
F 0 "R44" V 3130 5450 50  0000 C CNN
F 1 "10k" V 3050 5450 50  0000 C CNN
F 2 "Resistors_SMD:R_0805_HandSoldering" V 2980 5450 50  0001 C CNN
F 3 "" H 3050 5450 50  0001 C CNN
	1    3050 5450
	1    0    0    -1  
$EndComp
$Comp
L R R45
U 1 1 5B36CF09
P 3250 5650
F 0 "R45" V 3330 5650 50  0000 C CNN
F 1 "10k" V 3250 5650 50  0000 C CNN
F 2 "Resistors_SMD:R_0805_HandSoldering" V 3180 5650 50  0001 C CNN
F 3 "" H 3250 5650 50  0001 C CNN
	1    3250 5650
	0    1    1    0   
$EndComp
$Comp
L D D8
U 1 1 5B36D96B
P 3850 5650
F 0 "D8" H 3850 5750 50  0000 C CNN
F 1 "BAS16LT1" H 3850 5550 50  0000 C CNN
F 2 "Diodes_SMD:D_SOT-23_ANK" H 3850 5650 50  0001 C CNN
F 3 "" H 3850 5650 50  0001 C CNN
	1    3850 5650
	-1   0    0    1   
$EndComp
$Comp
L D D9
U 1 1 5B36DD0F
P 3550 5900
F 0 "D9" H 3550 6000 50  0000 C CNN
F 1 "BAS16LT1" H 3550 5800 50  0000 C CNN
F 2 "Diodes_SMD:D_SOT-23_ANK" H 3550 5900 50  0001 C CNN
F 3 "" H 3550 5900 50  0001 C CNN
	1    3550 5900
	0    1    1    0   
$EndComp
Wire Wire Line
	3050 5600 3050 5650
Connection ~ 3050 5650
Wire Wire Line
	3400 5650 3700 5650
Wire Wire Line
	3550 5650 3550 5750
Connection ~ 3550 5650
Wire Wire Line
	3050 5300 3050 5200
Wire Wire Line
	3050 5200 2500 5200
Connection ~ 2500 5200
$Comp
L R R39
U 1 1 5B36FA2A
P 2100 4150
F 0 "R39" V 2180 4150 50  0000 C CNN
F 1 "2,2k" V 2100 4150 50  0000 C CNN
F 2 "Resistors_SMD:R_0805_HandSoldering" V 2030 4150 50  0001 C CNN
F 3 "" H 2100 4150 50  0001 C CNN
	1    2100 4150
	1    0    0    -1  
$EndComp
Wire Wire Line
	2100 3950 2100 4000
Connection ~ 1850 3950
Wire Wire Line
	1850 4300 2100 4300
Connection ~ 1850 4300
$Comp
L R R18
U 1 1 5B3714E7
P 1500 1100
F 0 "R18" V 1400 1100 50  0000 C CNN
F 1 "22k" V 1500 1100 50  0000 C CNN
F 2 "Resistors_SMD:R_0805_HandSoldering" V 1430 1100 50  0001 C CNN
F 3 "" H 1500 1100 50  0001 C CNN
	1    1500 1100
	0    1    1    0   
$EndComp
Wire Wire Line
	1350 1250 1350 1100
Connection ~ 1350 1250
Wire Wire Line
	1650 1100 1700 1100
Connection ~ 1700 1100
$Comp
L TEN8-1223 U9
U 1 1 5B3749B1
P 2600 9000
F 0 "U9" H 2600 9750 50  0000 C CNN
F 1 "TEN8-1223" H 2600 8350 50  0000 C CNN
F 2 "Vikings_Devices:TEN8-1223" H 2600 9000 50  0001 C CNN
F 3 "" H 2600 9000 50  0001 C CNN
	1    2600 9000
	1    0    0    -1  
$EndComp
$Comp
L GND #PWR036
U 1 1 5B375BC8
P 3200 9300
F 0 "#PWR036" H 3200 9050 50  0001 C CNN
F 1 "GND" H 3200 9150 50  0000 C CNN
F 2 "" H 3200 9300 50  0001 C CNN
F 3 "" H 3200 9300 50  0001 C CNN
	1    3200 9300
	0    -1   -1   0   
$EndComp
$Comp
L GND #PWR037
U 1 1 5B375F93
P 2050 9300
F 0 "#PWR037" H 2050 9050 50  0001 C CNN
F 1 "GND" H 2050 9150 50  0000 C CNN
F 2 "" H 2050 9300 50  0001 C CNN
F 3 "" H 2050 9300 50  0001 C CNN
	1    2050 9300
	0    1    1    0   
$EndComp
Text GLabel 9800 4250 1    60   Input ~ 0
DCDC+
Wire Wire Line
	8900 4950 9300 4950
Wire Wire Line
	8900 5150 8900 4950
$Comp
L R R43
U 1 1 5B37A55C
P 9800 5200
F 0 "R43" V 9880 5200 50  0000 C CNN
F 1 "10k" V 9800 5200 50  0000 C CNN
F 2 "Resistors_SMD:R_0805" V 9730 5200 50  0001 C CNN
F 3 "" H 9800 5200 50  0001 C CNN
	1    9800 5200
	-1   0    0    1   
$EndComp
$Comp
L GND #PWR038
U 1 1 5B37AA1C
P 9800 5450
F 0 "#PWR038" H 9800 5200 50  0001 C CNN
F 1 "GND" H 9800 5300 50  0000 C CNN
F 2 "" H 9800 5450 50  0001 C CNN
F 3 "" H 9800 5450 50  0001 C CNN
	1    9800 5450
	1    0    0    -1  
$EndComp
$Comp
L GND #PWR039
U 1 1 5B37AB1D
P 10200 5450
F 0 "#PWR039" H 10200 5200 50  0001 C CNN
F 1 "GND" H 10200 5300 50  0000 C CNN
F 2 "" H 10200 5450 50  0001 C CNN
F 3 "" H 10200 5450 50  0001 C CNN
	1    10200 5450
	1    0    0    -1  
$EndComp
Wire Wire Line
	9800 5350 9800 5450
Wire Wire Line
	10200 5450 10200 5150
Wire Wire Line
	9600 4950 9900 4950
Wire Wire Line
	9800 4950 9800 5050
Connection ~ 9800 4950
$Comp
L R R42
U 1 1 5B37B5B9
P 9450 4950
F 0 "R42" V 9530 4950 50  0000 C CNN
F 1 "33" V 9450 4950 50  0000 C CNN
F 2 "Resistors_SMD:R_0805" V 9380 4950 50  0001 C CNN
F 3 "" H 9450 4950 50  0001 C CNN
	1    9450 4950
	0    -1   -1   0   
$EndComp
$Comp
L R R41
U 1 1 5B37C0F4
P 9800 4450
F 0 "R41" V 9900 4450 50  0000 C CNN
F 1 "10k" V 9800 4450 50  0000 C CNN
F 2 "Resistors_SMD:R_0805" V 9730 4450 50  0001 C CNN
F 3 "" H 9800 4450 50  0001 C CNN
	1    9800 4450
	1    0    0    -1  
$EndComp
Wire Wire Line
	9800 4250 9800 4300
Wire Wire Line
	9800 4600 9800 4650
Wire Wire Line
	9800 4650 10250 4650
Wire Wire Line
	10200 4650 10200 4750
Connection ~ 10200 4650
Wire Wire Line
	11700 4500 11800 4500
$Comp
L GND #PWR040
U 1 1 5B37D96A
P 10550 5450
F 0 "#PWR040" H 10550 5200 50  0001 C CNN
F 1 "GND" H 10550 5300 50  0000 C CNN
F 2 "" H 10550 5450 50  0001 C CNN
F 3 "" H 10550 5450 50  0001 C CNN
	1    10550 5450
	1    0    0    -1  
$EndComp
Wire Wire Line
	10550 5450 10550 4850
$Comp
L R R40
U 1 1 5B37DD45
P 10550 4200
F 0 "R40" V 10650 4200 50  0000 C CNN
F 1 "10k" V 10550 4200 50  0000 C CNN
F 2 "Resistors_SMD:R_0805" V 10480 4200 50  0001 C CNN
F 3 "" H 10550 4200 50  0001 C CNN
	1    10550 4200
	1    0    0    -1  
$EndComp
Text GLabel 10550 4000 1    60   Input ~ 0
DCDC+
Wire Wire Line
	10550 4000 10550 4050
Wire Wire Line
	10550 4350 10550 4450
Wire Wire Line
	10550 4400 11800 4400
Connection ~ 10550 4400
Wire Notes Line
	7450 3450 12750 3450
Wire Notes Line
	12750 3450 12750 6350
Wire Wire Line
	2300 3900 2200 3900
Wire Wire Line
	2200 3850 2150 3850
Connection ~ 2200 3850
Wire Wire Line
	1850 3850 1800 3850
$Comp
L R R46
U 1 1 5B3821D0
P 8000 6000
F 0 "R46" V 8100 6000 50  0000 C CNN
F 1 "150k" V 8000 6000 50  0000 C CNN
F 2 "Resistors_SMD:R_0805_HandSoldering" V 7930 6000 50  0001 C CNN
F 3 "" H 8000 6000 50  0001 C CNN
	1    8000 6000
	1    0    0    -1  
$EndComp
Wire Wire Line
	8000 5850 8000 5800
Wire Wire Line
	8000 5800 7700 5800
Connection ~ 7700 5800
Wire Wire Line
	8000 6150 8000 6200
Wire Wire Line
	8000 6200 7700 6200
Connection ~ 7700 6200
Wire Wire Line
	13050 4400 12900 4400
$Comp
L 2N7002 Q1
U 1 1 5B38CE53
P 14400 4200
F 0 "Q1" H 14600 4275 50  0000 L CNN
F 1 "2N7002" H 14600 4200 50  0000 L CNN
F 2 "TO_SOT_Packages_SMD:SOT-23" H 14600 4125 50  0001 L CIN
F 3 "" H 14400 4200 50  0001 L CNN
	1    14400 4200
	1    0    0    -1  
$EndComp
$Comp
L 2N7002 Q3
U 1 1 5B38D2A1
P 13900 4450
F 0 "Q3" H 14100 4525 50  0000 L CNN
F 1 "2N7002" H 14100 4450 50  0000 L CNN
F 2 "TO_SOT_Packages_SMD:SOT-23" H 14100 4375 50  0001 L CIN
F 3 "" H 13900 4450 50  0001 L CNN
	1    13900 4450
	1    0    0    -1  
$EndComp
$Comp
L 2N7002 Q5
U 1 1 5B38D3C4
P 10450 4650
F 0 "Q5" H 10650 4725 50  0000 L CNN
F 1 "2N7002" H 10650 4650 50  0000 L CNN
F 2 "TO_SOT_Packages_SMD:SOT-23" H 10650 4575 50  0001 L CIN
F 3 "" H 10450 4650 50  0001 L CNN
	1    10450 4650
	1    0    0    -1  
$EndComp
$Comp
L 2N7002 Q6
U 1 1 5B38D8F3
P 10100 4950
F 0 "Q6" H 10300 5025 50  0000 L CNN
F 1 "2N7002" H 10300 4950 50  0000 L CNN
F 2 "TO_SOT_Packages_SMD:SOT-23" H 10300 4875 50  0001 L CIN
F 3 "" H 10100 4950 50  0001 L CNN
	1    10100 4950
	1    0    0    -1  
$EndComp
$Comp
L HEF4071 U3
U 1 1 5B395324
P 4700 4050
F 0 "U3" H 5020 4710 60  0000 C CNN
F 1 "HEF4071" H 5070 3230 60  0000 C CNN
F 2 "Vikings_Devices:HEF4071B_QUAD_OR_GATE" H 4700 4050 60  0001 C CNN
F 3 "" H 4700 4050 60  0001 C CNN
	1    4700 4050
	1    0    0    -1  
$EndComp
Wire Wire Line
	4250 3650 4250 3700
Wire Wire Line
	4250 3700 4300 3700
Wire Wire Line
	3950 3800 4300 3800
Wire Wire Line
	5400 3750 6200 3750
Wire Wire Line
	6200 3750 6200 4450
$Comp
L GND #PWR041
U 1 1 5B397C4E
P 4850 5100
F 0 "#PWR041" H 4850 4850 50  0001 C CNN
F 1 "GND" H 4850 4950 50  0000 C CNN
F 2 "" H 4850 5100 50  0001 C CNN
F 3 "" H 4850 5100 50  0001 C CNN
	1    4850 5100
	1    0    0    -1  
$EndComp
$Comp
L GND #PWR042
U 1 1 5B397E51
P 4150 4800
F 0 "#PWR042" H 4150 4550 50  0001 C CNN
F 1 "GND" H 4150 4650 50  0000 C CNN
F 2 "" H 4150 4800 50  0001 C CNN
F 3 "" H 4150 4800 50  0001 C CNN
	1    4150 4800
	1    0    0    -1  
$EndComp
Wire Wire Line
	4150 4300 4300 4300
Wire Wire Line
	4300 4200 4150 4200
Wire Wire Line
	4150 3950 4150 4500
Connection ~ 4150 4300
Wire Wire Line
	4150 4050 4300 4050
Connection ~ 4150 4200
Wire Wire Line
	4150 3950 4300 3950
Connection ~ 4150 4050
Wire Wire Line
	4150 4450 4300 4450
Connection ~ 4150 4450
Wire Wire Line
	5450 4550 5450 4500
Wire Wire Line
	5450 4500 5400 4500
Wire Wire Line
	13050 4400 13050 4450
NoConn ~ 5400 4250
NoConn ~ 5400 4000
Wire Wire Line
	12950 4400 12950 6800
Wire Wire Line
	12950 6800 4250 6800
Wire Wire Line
	4250 6800 4250 4550
Wire Wire Line
	4250 4550 4300 4550
Connection ~ 12950 4400
Connection ~ 11700 4500
Wire Wire Line
	11700 4550 11700 4500
Text Notes 6450 900  0    60   ~ 0
This part of the circuit is not necessary for the functionality of the BSPD but adds the possibility of interfacing the sensor signal to a microcontroller\nHAS-100-S will provide an ouput of -12 V to 12 V.\nThis is converted in the amplifier setup to a signal in the voltage range 0 V to 12 V for possible interfacing with microcontroller\n\n
$Comp
L LM555 U?
U 1 1 5B565EFA
P 13300 7900
F 0 "U?" H 12900 8250 50  0000 L CNN
F 1 "LM555" H 13400 8250 50  0000 L CNN
F 2 "" H 13300 7900 50  0001 C CNN
F 3 "" H 13300 7900 50  0001 C CNN
	1    13300 7900
	1    0    0    -1  
$EndComp
Text GLabel 12750 8150 3    60   Input ~ 0
DCDC+
Wire Wire Line
	12750 8150 12750 8100
Wire Wire Line
	12750 8100 12800 8100
$Comp
L C C?
U 1 1 5B566A59
P 12500 8150
F 0 "C?" H 12525 8250 50  0000 L CNN
F 1 "C" H 12525 8050 50  0000 L CNN
F 2 "" H 12538 8000 50  0001 C CNN
F 3 "" H 12500 8150 50  0001 C CNN
	1    12500 8150
	1    0    0    -1  
$EndComp
$Comp
L GND #PWR?
U 1 1 5B566B56
P 12500 8350
F 0 "#PWR?" H 12500 8100 50  0001 C CNN
F 1 "GND" H 12500 8200 50  0000 C CNN
F 2 "" H 12500 8350 50  0001 C CNN
F 3 "" H 12500 8350 50  0001 C CNN
	1    12500 8350
	1    0    0    -1  
$EndComp
Wire Wire Line
	12500 8000 12500 7900
Wire Wire Line
	12500 7900 12800 7900
Wire Wire Line
	12500 8350 12500 8300
$Comp
L R R?
U 1 1 5B5670FF
P 12200 8150
F 0 "R?" V 12280 8150 50  0000 C CNN
F 1 "R" V 12200 8150 50  0000 C CNN
F 2 "" V 12130 8150 50  0001 C CNN
F 3 "" H 12200 8150 50  0001 C CNN
	1    12200 8150
	1    0    0    -1  
$EndComp
$Comp
L GND #PWR?
U 1 1 5B567736
P 12200 8350
F 0 "#PWR?" H 12200 8100 50  0001 C CNN
F 1 "GND" H 12200 8200 50  0000 C CNN
F 2 "" H 12200 8350 50  0001 C CNN
F 3 "" H 12200 8350 50  0001 C CNN
	1    12200 8350
	1    0    0    -1  
$EndComp
Wire Wire Line
	12200 8350 12200 8300
Wire Wire Line
	12200 7650 12200 8000
Wire Wire Line
	12150 7700 12800 7700
$Comp
L D D?
U 1 1 5B567B22
P 12000 7700
F 0 "D?" H 12000 7800 50  0000 C CNN
F 1 "D" H 12000 7600 50  0000 C CNN
F 2 "" H 12000 7700 50  0001 C CNN
F 3 "" H 12000 7700 50  0001 C CNN
	1    12000 7700
	-1   0    0    1   
$EndComp
$Comp
L C C?
U 1 1 5B567C57
P 11800 8150
F 0 "C?" H 11825 8250 50  0000 L CNN
F 1 "C" H 11825 8050 50  0000 L CNN
F 2 "" H 11838 8000 50  0001 C CNN
F 3 "" H 11800 8150 50  0001 C CNN
	1    11800 8150
	1    0    0    -1  
$EndComp
$Comp
L GND #PWR?
U 1 1 5B567D8A
P 11800 8350
F 0 "#PWR?" H 11800 8100 50  0001 C CNN
F 1 "GND" H 11800 8200 50  0000 C CNN
F 2 "" H 11800 8350 50  0001 C CNN
F 3 "" H 11800 8350 50  0001 C CNN
	1    11800 8350
	1    0    0    -1  
$EndComp
Wire Wire Line
	11800 8350 11800 8300
Wire Wire Line
	11800 7650 11800 8000
Wire Wire Line
	11800 7700 11850 7700
Connection ~ 12200 7700
$Comp
L R R?
U 1 1 5B568634
P 11800 7500
F 0 "R?" V 11880 7500 50  0000 C CNN
F 1 "R" V 11800 7500 50  0000 C CNN
F 2 "" V 11730 7500 50  0001 C CNN
F 3 "" H 11800 7500 50  0001 C CNN
	1    11800 7500
	1    0    0    -1  
$EndComp
Connection ~ 11800 7700
$Comp
L C C?
U 1 1 5B569CAC
P 12200 7500
F 0 "C?" H 12225 7600 50  0000 L CNN
F 1 "C" H 12225 7400 50  0000 L CNN
F 2 "" H 12238 7350 50  0001 C CNN
F 3 "" H 12200 7500 50  0001 C CNN
	1    12200 7500
	1    0    0    -1  
$EndComp
Text GLabel 11800 7300 1    60   Input ~ 0
DCDC+
Text GLabel 12200 7300 1    60   Input ~ 0
DCDC+
Wire Wire Line
	12200 7300 12200 7350
Wire Wire Line
	11800 7300 11800 7350
Text GLabel 13300 7300 1    60   Input ~ 0
DCDC+
Wire Wire Line
	13300 7300 13300 7500
$Comp
L GND #PWR?
U 1 1 5B56AECE
P 13300 8350
F 0 "#PWR?" H 13300 8100 50  0001 C CNN
F 1 "GND" H 13300 8200 50  0000 C CNN
F 2 "" H 13300 8350 50  0001 C CNN
F 3 "" H 13300 8350 50  0001 C CNN
	1    13300 8350
	1    0    0    -1  
$EndComp
Wire Wire Line
	13300 8350 13300 8300
$Comp
L GND #PWR?
U 1 1 5B56B6E6
P 14100 8350
F 0 "#PWR?" H 14100 8100 50  0001 C CNN
F 1 "GND" H 14100 8200 50  0000 C CNN
F 2 "" H 14100 8350 50  0001 C CNN
F 3 "" H 14100 8350 50  0001 C CNN
	1    14100 8350
	1    0    0    -1  
$EndComp
$Comp
L C C?
U 1 1 5B56B802
P 14100 8150
F 0 "C?" H 14125 8250 50  0000 L CNN
F 1 "C" H 14125 8050 50  0000 L CNN
F 2 "" H 14138 8000 50  0001 C CNN
F 3 "" H 14100 8150 50  0001 C CNN
	1    14100 8150
	1    0    0    -1  
$EndComp
Wire Wire Line
	13800 8100 13850 8100
Wire Wire Line
	13850 8100 13850 7900
Wire Wire Line
	13800 7900 14100 7900
Wire Wire Line
	14100 7850 14100 8000
Connection ~ 13850 7900
$Comp
L R R?
U 1 1 5B56C13E
P 14100 7700
F 0 "R?" V 14180 7700 50  0000 C CNN
F 1 "R" V 14100 7700 50  0000 C CNN
F 2 "" V 14030 7700 50  0001 C CNN
F 3 "" H 14100 7700 50  0001 C CNN
	1    14100 7700
	1    0    0    -1  
$EndComp
Text GLabel 14100 7300 1    60   Input ~ 0
DCDC+
Connection ~ 14100 7900
Wire Wire Line
	14100 7550 14100 7300
$EndSCHEMATC
